<svg xmlns="http://www.w3.org/2000/svg" viewBox="0 0 216.4 166.7">
	<path fill="#939393" d="M58.03 90.7771v65.23h147.8223v-65.23h-15.21v50.01h-117.3v-50.01z"/>
	<path d="M109.1 10.67v52.02H93.63a5.131 3.765 0 00-4.421 5.781l38.08 48.45a5.131 3.765 0 008.84 0l38.19-48.4A5.131 3.765 0 00169.9 62.74h-15.47V10.71z" fill="#3c98d7" fill-opacity=".9882"/>
</svg>
