<svg viewBox="0 0 100 100" xmlns="http://www.w3.org/2000/svg">
	<path fill="#3daee9" d="M50.08 73.74l6.33-5.31-6.24-7.8-5.58 5.15-2.72 5.21 5.98-3.13-3.35 6.12 6.38-3.76zM75 71v10A13 14 0 0162 95H25A13 14 0 0112 81V41a13 14 0 0113-14h37a13 14 0 016 2l-3.518 5.696L62 37H27a6 6 0 00-6 6V79a6 6 0 006 6h33a6 6 0 006-6V72l3-3zm-4.23-35.49 10.71 13.6-30.6 27.81-16.37 2.99 6.07-16.34zm14.41 10.42-10.8-13.74 4.06-3.81a3.92 3.92 0 015.53.43l5.71 7.23a4.28 4.28 0 01-.44 6.03z"/>
</svg>
