<svg width="20" height="20" version="1.1" viewBox="0 0 20 20" xmlns="http://www.w3.org/2000/svg"><style id="a" type="text/css">.ColorScheme-Text {
            color:#232629;
        }</style><g fill="#8b7f75" stroke="#8b7f75" stroke-linecap="round" stroke-linejoin="round" stroke-width="1.116"><rect transform="rotate(90)" x="1.021" y="-5.252" width="4.215" height="4.29" rx="1.353" ry="1.268" color="#000000" stop-color="#000000" style="font-variation-settings:normal;paint-order:stroke fill markers"/><rect transform="rotate(90)" x="1.021" y="-12.02" width="4.215" height="4.29" rx="1.353" ry="1.268" color="#000000" stop-color="#000000" style="font-variation-settings:normal;paint-order:stroke fill markers"/><rect transform="rotate(90)" x="1.021" y="-18.79" width="4.215" height="4.29" rx="1.353" ry="1.268" color="#000000" stop-color="#000000" style="font-variation-settings:normal;paint-order:stroke fill markers"/><rect transform="rotate(90)" x="7.802" y="-5.416" width="4.215" height="4.29" rx="1.353" ry="1.268" color="#000000" stop-color="#000000" style="font-variation-settings:normal;paint-order:stroke fill markers"/><rect transform="rotate(90)" x="7.802" y="-12.18" width="4.215" height="4.29" rx="1.353" ry="1.268" color="#000000" stop-color="#000000" style="font-variation-settings:normal;paint-order:stroke fill markers"/><rect transform="rotate(90)" x="7.802" y="-18.95" width="4.215" height="4.29" rx="1.353" ry="1.268" color="#000000" stop-color="#000000" style="font-variation-settings:normal;paint-order:stroke fill markers"/><rect transform="rotate(90)" x="14.76" y="-5.605" width="4.215" height="4.29" rx="1.353" ry="1.268" color="#000000" stop-color="#000000" style="font-variation-settings:normal;paint-order:stroke fill markers"/><rect transform="rotate(90)" x="14.76" y="-12.37" width="4.215" height="4.29" rx="1.353" ry="1.268" color="#000000" stop-color="#000000" style="font-variation-settings:normal;paint-order:stroke fill markers"/><rect transform="rotate(90)" x="14.76" y="-19.14" width="4.215" height="4.29" rx="1.353" ry="1.268" color="#000000" stop-color="#000000" style="font-variation-settings:normal;paint-order:stroke fill markers"/></g></svg>
