<svg width="20" height="20" version="1.1" viewBox="0 0 20 20" xmlns="http://www.w3.org/2000/svg"><style id="a" type="text/css">.ColorScheme-Text {
            color:#232629;
        }</style><g transform="translate(-.6176)" fill="#8b7f75" stroke="#8b7f75" stroke-linecap="round" stroke-linejoin="round" stroke-width="1.031"><rect transform="matrix(.7292 -.6843 -.6843 -.7292 0 0)" x="-2.977" y="-23.3" width="2.847" height="12.36" ry="1.424" color="#000000" stop-color="#000000" style="font-variation-settings:normal;paint-order:stroke fill markers"/><rect transform="rotate(43.18)" x="10.72" y="-8.807" width="2.847" height="12.36" ry="1.424" color="#000000" stop-color="#000000" style="font-variation-settings:normal;paint-order:stroke fill markers"/></g></svg>
