<?xml version="1.0" encoding="UTF-8"?>
<svg width="20" height="20" version="1.1" viewBox="0 0 71.417 71.429" xmlns="http://www.w3.org/2000/svg" xmlns:cc="http://creativecommons.org/ns#" xmlns:dc="http://purl.org/dc/elements/1.1/" xmlns:rdf="http://www.w3.org/1999/02/22-rdf-syntax-ns#">
 <metadata>
  <rdf:RDF>
   <cc:Work rdf:about="">
    <dc:format>image/svg+xml</dc:format>
    <dc:type rdf:resource="http://purl.org/dc/dcmitype/StillImage"/>
    <dc:title/>
   </cc:Work>
  </rdf:RDF>
 </metadata>
 <path transform="matrix(3.5714 0 0 3.5714 -.005952 0)" d="m5.6113 0.068359c-2.8182 0-5.0879 2.2678-5.0879 5.0859v9.6152c0 2.8182 2.2697 5.0879 5.0879 5.0879h8.7305c2.8182 0 5.0879-2.2697 5.0879-5.0879v-9.6152c0-2.8182-2.2697-5.0859-5.0879-5.0859h-8.7305zm-0.50586 2.3691h9.7148c1.5849 0 2.8828 1.2998 2.8828 2.8848v9.918c0 1.5849-1.2979 2.8828-2.8828 2.8828h-9.7148c-1.5849 0-2.8828-1.2979-2.8828-2.8828v-9.918c1e-7 -1.5849 1.2979-2.8848 2.8828-2.8848zm0 1.4375c-0.81423 0-1.4473 0.63304-1.4473 1.4473v9.918c0 0.81423 0.63304 1.4473 1.4473 1.4473h9.7148c0.81423 0 1.4473-0.63304 1.4473-1.4473v-9.918c0-0.81423-0.63304-1.4473-1.4473-1.4473h-9.7148zm9.1934 1.3672a0.73382 0.79826 0 0 1 0.025391 0 0.73382 0.79826 0 0 1 0.73242 0.79688 0.73382 0.79826 0 0 1-0.73242 0.79883 0.73382 0.79826 0 0 1-0.73438-0.79883 0.73382 0.79826 0 0 1 0.70898-0.79688zm-4.1035 0.8418c2.4426 0 4.4375 1.9949 4.4375 4.4375 3e-6 2.4426-1.9949 4.4395-4.4375 4.4395-2.4426 0-4.4375-1.9969-4.4375-4.4395 0-2.4426 1.9949-4.4375 4.4375-4.4375zm0 1.4375c-1.6665 0-3.002 1.3335-3.002 3-3e-7 1.6665 1.3354 3.0039 3.002 3.0039 1.6665 0 3.002-1.3374 3.002-3.0039 0-1.6665-1.3354-3-3.002-3z" color="#000000" fill="#fff" stop-color="#000000"/>
</svg>
