<?xml version="1.0" encoding="UTF-8"?>
<svg width="20" height="20" version="1.1" viewBox="0 0 71.417 71.429" xmlns="http://www.w3.org/2000/svg" xmlns:cc="http://creativecommons.org/ns#" xmlns:dc="http://purl.org/dc/elements/1.1/" xmlns:rdf="http://www.w3.org/1999/02/22-rdf-syntax-ns#">
 <metadata>
  <rdf:RDF>
   <cc:Work rdf:about="">
    <dc:format>image/svg+xml</dc:format>
    <dc:type rdf:resource="http://purl.org/dc/dcmitype/StillImage"/>
    <dc:title/>
   </cc:Work>
  </rdf:RDF>
 </metadata>
 <path transform="matrix(3.5714 0 0 3.5714 -.005952 0)" d="m5.6113 0.068359c-2.8182 0-5.0879 2.2678-5.0879 5.0859v9.6152c0 2.8182 2.2697 5.0879 5.0879 5.0879h8.7305c2.8182 0 5.0879-2.2697 5.0879-5.0879v-9.6152c0-2.8182-2.2697-5.0859-5.0879-5.0859h-8.7305zm-1.9844 2.4316h0.029297c1.7591 0 3.4403 0.39274 5.0449 1.1797 1.6114 0.78695 3.0422 1.8451 4.291 3.1758 1.2488 1.3307 2.2419 2.8553 2.9805 4.5723 0.73854 1.7098 1.1418 3.5026 1.209 5.377v0.074218c0 0.19316-0.066892 0.36083-0.20117 0.50391-0.13428 0.14308-0.30249 0.21484-0.50391 0.21484h-1.4102c-0.13428 0-0.26806-0.062304-0.40234-0.1875-0.13428-0.1252-0.20117-0.27623-0.20117-0.45508-0.13428-1.5381-0.47069-2.9982-1.0078-4.3789-0.6244-1.3879-1.4169-2.5896-2.377-3.6055-0.95339-1.023-2.0803-1.8679-3.3828-2.5332-1.2958-0.57232-2.6659-0.92918-4.1094-1.0723-0.16785 0-0.31024-0.071763-0.42773-0.21484-0.11749-0.14308-0.17578-0.28661-0.17578-0.42969v-1.5352c0-0.20031 0.066892-0.36341 0.20117-0.49219 0.12085-0.12877 0.2688-0.19336 0.44336-0.19336zm0.019531 5.4824h0.050781c1.0742 0.093002 2.0998 0.38005 3.0801 0.85938 0.98024 0.48648 1.8507 1.1376 2.6094 1.9531 0.7654 0.80841 1.3755 1.7348 1.832 2.7793 0.44984 1.0445 0.71936 2.1386 0.80664 3.2832 0.013428 0.20031-0.044309 0.37254-0.17188 0.51562-0.12085 0.15024-0.27795 0.22461-0.47266 0.22461h-1.3594c-0.16785 0-0.31274-0.057739-0.43359-0.17578-0.12085-0.11804-0.18774-0.26646-0.20117-0.44531-0.14771-1.6383-0.76585-3.0409-1.8535-4.207-1.0944-1.159-2.4098-1.8172-3.9473-1.9746-0.16785-0.014308-0.30719-0.086071-0.41797-0.21484-0.11078-0.12877-0.16602-0.28209-0.16602-0.46094v-1.4492c0-0.20747 0.069944-0.37513 0.21094-0.50391 0.11414-0.12162 0.25903-0.18359 0.43359-0.18359zm1.2891 5.4941c0.53712 0 0.99316 0.20094 1.3691 0.60156 0.37598 0.40063 0.56445 0.88666 0.56445 1.459 0 0.57232-0.18847 1.0603-0.56445 1.4609-0.37598 0.40063-0.83202 0.59961-1.3691 0.59961-0.53712 0-0.99316-0.19898-1.3691-0.59961-0.37598-0.40063-0.56445-0.88861-0.56445-1.4609 0-0.57232 0.18847-1.0584 0.56445-1.459 0.37598-0.40063 0.83202-0.60156 1.3691-0.60156z" color="#000000" fill="#fff" stop-color="#000000"/>
</svg>
