<?xml version="1.0" encoding="UTF-8"?><svg width="560" height="120" version="1.1" xmlns="http://www.w3.org/2000/svg">
 <path d="m143.58 119.38c0-0.95359-0.97764-1.6467-2.1849-1.5492-1.0426 0.0843-1.0926 0.0513-1.4408-0.94875-0.58319-1.6752-0.13295-2.729 2.1801-5.103 1.737-1.7827 4.6085-5.6813 5.0694-6.8825 0.0884-0.23036 0.48222-0.40175 0.92314-0.40175 1.4684 0 2.2376-1.4775 1.5522-2.9816-0.23238-0.51003-0.024-1.2692 1.2255-4.4647 0.828-2.1176 2.1029-5.8837 2.8331-8.3688 1.4195-4.8313 1.7213-5.5834 2.5354-6.3202 0.46388-0.41979 0.55742-0.42699 0.85716-0.06583 0.47782 0.57576 1.9529 0.51225 2.5144-0.10827 0.25569-0.28252 0.63624-0.44794 0.84567-0.36757 0.69105 0.26518 1.6346 2.2958 2.6326 5.6656 1.177 3.9743 1.6716 5.0016 3.1886 6.6235 1.6165 1.7282 3.2265 2.2777 5.9282 2.0234 1.1223-0.10563 2.8572-0.21051 3.8552-0.23306 1.8948-0.04285 2.5709-0.44449 2.5709-1.5275 0-0.25 0.41653-0.70031 0.92562-1.0007 2.9775-1.7569 11.213-8.4979 14.591-11.943l1.8272-1.8638-2.7052-1.7555c-2.6485-1.7187-2.6966-1.7679-2.2924-2.3449 0.22708-0.32419 0.41286-0.86184 0.41286-1.1948 0-1.4367-2.1137-2.2129-3.1647-1.1621-0.49813 0.49813-0.54788 0.46412-3.012-2.06-2.5196-2.581-4.2589-4.7538-5.0856-6.3535l-0.44611-0.86314-1.0869 0.68616c-1.9066 1.2036-3.3807 1.7046-5.0152 1.7046-1.2869 0-1.6939-0.11905-2.3797-0.69618-1.7526-1.4747-2.0571-3.3439-0.91723-5.6312 0.78462-1.5745 3.8502-4.7482 6.6211-6.8551l1.8606-1.4145 0.19222 2.0439c0.2298 2.4435 1.0463 3.8234 2.8537 4.8224l1.1617 0.64216-0.85874-1.5725c-0.67632-1.2384-0.91197-2.0755-1.1093-3.9404-0.13777-1.3024-0.1988-2.4196-0.13561-2.4828 0.22433-0.22433 2.6281 2.2103 3.7903 3.839 0.98018 1.3736 1.1325 1.7428 0.89898 2.1791-0.15464 0.28893-0.28115 0.71805-0.28115 0.95359 0 0.63055 1.211 1.7318 1.915 1.7415 0.44704 0.0061 0.90836 0.45033 1.7255 1.6613 1.5693 2.3256 3.4732 4.3925 5.8652 6.3668 4.1095 3.3922 6.9972 4.4797 16.676 6.2792 4.8938 0.90985 6.3889 1.4268 6.1065 2.111-0.42653 1.034-0.43234 1.4137-0.0311 2.026 0.23235 0.35466 0.67504 0.72497 0.98371 0.82294 1.2161 0.38596-0.28712 2.9076-2.3592 3.9575-0.89832 0.45522-2.0882 0.72103-4.251 0.94958l-3.0034 0.31738-0.63728-0.68763c-1.1179-1.2063-3.3206-0.60452-3.3206 0.9072 0 0.29239-0.1588 0.53161-0.35286 0.53161-0.59056 0-3.6115 1.3073-4.7871 2.0715-0.60857 0.39566-2.9808 2.4608-5.2713 4.589-3.933 3.6542-4.2165 3.8637-5.0906 3.7618-1.1756-0.13725-2.1136 0.68937-1.9907 1.7543 0.071 0.61576-0.19383 0.92276-1.911 2.2144-4.6335 3.4853-8.8471 5.2132-13.32 5.4629-3.5443 0.19764-4.0341 0.0817-4.3645-1.033-0.14922-0.50379-0.5647-1.037-0.99101-1.272-0.66656-0.36731-0.80888-0.36183-1.5479 0.0596-0.55728 0.31773-0.95635 0.38779-1.2658 0.22221-0.57281-0.30657-2.8157-2.7053-4.0143-4.2931l-0.91693-1.2148-1.2382 3.0754c-2.747 6.823-6.4263 13.188-9.6767 16.741-2.0221 2.2102-4.6612 3.4273-4.6612 2.1498zm128.62-2.773c-1.0783-0.73276-2.2299-3.0303-1.9543-3.8988 0.0925-0.29158 1.8441-2.1691 3.8923-4.1723 3.5578-3.4794 4.1756-4.2286 4.5864-5.561l0.18187-0.58991-1.2615 0.55802c-2.2398 0.99079-5.4487 0.45215-8.3779-1.4062-1.1836-0.75091-1.23-0.82733-1.0988-1.8059 0.19484-1.4525-0.62948-2.272-2.056-2.0439-0.97022 0.15513-1.0463 0.1103-1.9524-1.151-1.1228-1.5628-2.3978-4.0359-3.2551-6.3137-0.58902-1.5649-0.5992-1.695-0.18845-2.4107 0.54965-0.95774 0.29604-2.1037-0.55097-2.4896-0.5309-0.24188-0.64549-0.54004-0.78819-2.0509-0.24264-2.5686-0.20955-4.3536 0.12979-6.9995 0.25711-2.0047 0.37246-2.3438 0.79738-2.3438 1.3664 0 2.0558-2.1623 1.0198-3.1983l-0.54033-0.5403 1.0452-2.2302c2.0872-4.4541 3.4043-5.7287 5.9144-5.7237 1.639 0.0033 3.0615 0.39775 5.6332 1.5621l1.8105 0.81966-0.54346-0.69088c-0.60361-0.76732-2.414-1.9867-3.6215-2.4392-0.68551-0.25689-0.59966-0.27638 0.67678-0.15367 3.1983 0.30745 7.1386 2.7714 9.8689 6.1708 1.8778 2.338 4.0541 6.3016 4.9274 8.9738l0.70305 2.1516-0.57293 0.57293c-0.31512 0.31511-0.57296 0.87195-0.57296 1.2375 0 0.71985 0.83626 1.7277 1.4335 1.7277 0.55739 0 0.70888 0.63228 0.987 4.1198 0.29131 3.6527 0.14076 6.7007-0.49556 10.034-0.43161 2.261-0.46462 2.3258-1.1844 2.3258-0.92493 0-1.8037 0.8479-1.8037 1.7404 0 0.38829 0.29556 0.95111 0.69285 1.3193l0.69282 0.6421-1.505 3.1296c-1.754 3.6477-4.3886 7.7021-6.0623 9.3296-1.0931 1.0629-1.2255 1.1206-1.8828 0.82119-0.899-0.4096-1.9147 4e-3 -2.3484 0.95542-0.38826 0.85211-1.1443 0.85907-2.3764 0.0218zm5.5584-24.603c0.89312-0.0023 2.0004-1.2081 1.8469-2.011-0.13664-0.71466 0.0435-0.77104 1.3064-0.40886 0.75226 0.21575 0.84794 0.17795 0.954-0.37694 0.36899-1.9301-1.0384-6.8062-3.396-11.766-1.315-2.7665-1.419-3.1116-1.0576-3.511 0.53-0.58563 0.51001-1.8333-0.0391-2.44-0.48368-0.5345-2.0748-0.66715-2.3653-0.19718-0.11226 0.18168-0.48798-0.01061-1.0124-0.51814-2.3319-2.2568-4.8481-2.078-6.1174 0.43471-1.031 2.0406-1.3281 4.0609-1.3379 9.0976-0.0101 5.0234 0.29121 6.5194 1.8533 9.2111 1.5765 2.7165 4.6609 5.3129 6.7346 5.6689l0.95756 0.16441 0.53162-1.6729c0.44867-1.4119 0.6268-1.6732 1.1418-1.6745zm-161.55 17.193c0-0.90722-0.57464-1.5343-1.5978-1.7435-0.78574-0.1607-0.93534-0.32071-1.1169-1.1947-0.25578-1.2311-0.26367-1.219 3.0662-4.7066 2.0118-2.1071 2.817-3.1853 3.6804-4.9277 0.60789-1.2268 1.2705-2.2304 1.4726-2.2304 0.56193 0 1.6722-1.2354 1.6722-1.8606 0-0.30568-0.28772-0.84351-0.63941-1.1952-0.62026-0.62026-0.64296-0.7889-0.75792-5.6362-0.10205-4.3017-0.21743-5.3821-0.82957-7.7676-0.48632-1.8949-0.6248-2.8568-0.43818-3.0435 0.71536-0.71537-0.0167-2.8246-0.98036-2.8246-0.37641 0-1.9387-5.7007-1.9303-7.0437 0.0167-2.6787 0.91646-4.2035 2.6674-4.5204l0.94571-0.17112-0.11233 0.96219c-0.14965 1.2819 0.49583 2.0017 1.7952 2.0017h0.96673l0.85144 2.3258c1.1471 3.1334 1.7483 5.5018 2.7059 10.659 1.6307 8.7829 2.037 15.686 1.1628 19.754-0.43511 2.0249-0.45011 2.0491-1.1785 1.9035-0.56058-0.11211-0.9016 0.01624-1.4199 0.53459-0.85744 0.85745-0.86555 1.6102-0.0264 2.4494l0.6557 0.65568-0.78781 1.3361c-2.657 4.5065-5.604 6.8778-8.5642 6.8914-1.1434 5e-3 -1.2626-0.0521-1.2626-0.60788zm83.729 0.41196c-1.8699-0.92373-2.7292-2.5495-2.7679-5.2368-0.0254-1.7679 0.3862-2.5645 1.8375-3.5563 1.5654-1.0698 1.7277-1.0365 1.7277 0.35407 0 1.2277 0.54622 2.7849 1.1541 3.2902 0.22892 0.19034 0.30778-0.30023 0.30778-1.9149v-2.1707l0.76824 0.0551c1.7026 0.12221 3.119 2.3986 3.119 5.0128 0 3.0191-1.0056 4.111-3.9295 4.2666-1.0002 0.0533-1.9979 8e-3 -2.2172-0.10026zm142.44-1.6748c-1.6858-0.39894-3.9527-1.5247-3.9527-1.963 0-0.62884-0.98303-1.4765-1.7122-1.4765-0.4796 0-0.96913-0.41609-1.8758-1.5943-3.4673-4.5062-5.3553-11.113-5.9978-20.99-0.35143-5.4027-0.22377-11.406 0.28425-13.366 0.27503-1.0611 0.42822-1.2626 0.96018-1.2626 1.4158 0 2.1776-1.8524 1.2856-3.1258-0.48467-0.69196-0.24224-1.3156 0.84338-2.1696 1.3674-1.0756 3.0403-0.44903 4.6 1.7227 1.15 1.6013 1.308 2.9716 0.61651 5.3462-0.29071 0.99826-0.67434 2.5105-0.85256 3.3607-0.2081 0.99278-0.48212 1.6013-0.76624 1.7017-1.307 0.46156-1.8295 2.0538-0.98136 2.9908 0.30879 0.34122 0.34298 0.73726 0.16232 1.8801-0.28599 1.8091 0.0843 6.1422 0.73885 8.6476l0.49148 1.8809-0.62613 0.55769c-1.3078 1.1649-0.39996 3.4391 1.2748 3.1933 0.72539-0.10646 0.86323 0.01785 1.8129 1.635 1.8304 3.1166 4.0087 4.734 6.6968 4.9716 1.5189 0.13424 1.7723 0.08207 2.5917-0.53412 1.6613-1.2492 2.8546-3.5793 3.859-7.5356 0.4625-1.8213 0.81601-2.6578 1.3211-3.1258 0.83764-0.77628 0.89078-1.7923 0.13341-2.5497-0.35683-0.35684-0.50405-0.75548-0.41073-1.1123 0.35379-1.353-0.41624-14.088-1.2437-20.568l-0.85385-6.6868 0.60192-0.53612c0.761-0.67785 0.79483-1.9782 0.0703-2.7028-0.29236-0.29238-0.6929-0.53161-0.89007-0.53161-0.25317 0-0.5312-1.0347-0.94634-3.5219-0.32327-1.9371-1.0648-5.7944-1.6478-8.5721-1.4351-6.8371-1.4634-7.1781-0.71607-8.6387 0.53047-1.0368 0.75072-1.2181 1.6535-1.3609 1.0164-0.16081 1.7494-0.78133 1.7494-1.4808 0-0.22125 0.34306-0.34792 0.94239-0.34792 1.4709 0 2.0846 0.82515 2.7631 3.7149 0.96694 4.1187 2.6321 15.679 3.3318 23.131 0.85028 9.0555 2.2572 19.112 3.4953 24.985 1.0851 5.1472 3.4558 12.318 4.5628 13.801 0.68909 0.92336 1.3501 1.2955 1.5975 0.89951 0.13681-0.21896 1.5131-0.33975 4.4446-0.39012 3.9902-0.06856 4.2825-0.10883 4.8446-0.6675 0.32894-0.32702 0.59808-0.84466 0.59808-1.1503 0-0.52713-0.90367-1.66-1.5058-1.8878-0.34234-0.12951-3.3984-5.7039-4.1352-7.543-2.2496-5.6149-3.0008-9.2957-2.7917-13.678 0.17963-3.7632 0.26221-4.0034 1.3761-4.0034 1.618 0 2.3347-1.8584 1.1875-3.0795l-0.55295-0.58858 1.4764-1.453c2.803-2.7586 7.0302-3.3489 10.66-1.4885 4.5404 2.3268 8.5565 8.7304 10.084 16.079 0.92388 4.4437 0.75635 10.731-0.28594 10.731-0.59052 0-1.4256 1.0121-1.4256 1.7277 0 0.36548 0.24523 0.90973 0.54499 1.2095l0.54497 0.54496-0.73159 1.515c-0.40234 0.83325-0.77403 1.5953-0.82599 1.6935-0.0519 0.09818 0.71115 0.56297 1.6956 1.0328 1.4697 0.7014 2.2134 0.87844 4.1558 0.98919l2.3658 0.13489 1.3981-1.4785c1.7105-1.8088 2.1843-3.2336 2.583-7.7678 0.25672-2.9201 0.21077-3.8054-0.54402-10.476-0.7368-6.5112-0.7819-7.3334-0.42372-7.7292 0.61192-0.67617 0.50541-2.0066-0.20609-2.5746-0.57868-0.46194-0.68412-1.1764-2.2682-15.369-0.9137-8.1866-1.6573-15.264-1.6524-15.727 0.013-1.2515 0.89576-3.0653 1.8196-3.7391 0.4828-0.35212 1.4089-0.6637 2.2755-0.76555 1.4376-0.16897 1.4699-0.15762 1.9909 0.69918 0.29131 0.479 0.73432 1.7061 0.98448 2.7269 0.42242 1.7237 0.4238 1.9086 0.0192 2.5937-0.61565 1.0422-0.54617 1.5353 0.33212 2.3558 0.85206 0.79594 0.96656 1.4167 1.7506 9.4896 0.30963 3.188 0.32369 4.1882 0.0683 4.8646-0.27191 0.72038-0.24987 0.9764 0.1432 1.6612 0.34225 0.59636 0.64145 2.5706 1.1359 7.4952 0.76904 7.6597 1.8532 16.625 2.3255 19.231 0.30989 1.7099 0.29881 1.8054-0.27621 2.3804-0.32952 0.32949-0.59911 0.84917-0.59911 1.1548 0 0.62739 1.111 1.8606 1.6762 1.8606 0.2323 0 0.54841 0.65412 0.84418 1.7467 0.59058 2.1818 2.6469 5.3921 4.1523 6.4826 1.0328 0.7482 1.2813 0.80794 3.3592 0.80794 1.8415 0 2.3652 0.09537 2.9198 0.5316 0.84041 0.66106 1.4154 0.6714 2.2296 0.04013 0.44303-0.34352 1.2929-0.54098 2.8226-0.65585 4.9459-0.37141 7.4519-1.8748 9.7392-5.8428l0.7352-1.2754-1.4817 0.83623c-1.3786 0.77799-1.5963 0.82294-3.1272 0.64525-5.6821-0.65946-10.461-4.4894-12.946-10.376-2.1569-5.1083-2.6051-13.292-1.0582-19.321 0.21918-0.85429 0.36236-0.99676 1.0017-0.99676 1.4156 0 2.179-1.872 1.2031-2.9504-0.60022-0.66323-0.29693-1.3521 1.3283-3.0167 2.3249-2.3813 3.6751-2.2995 8.5804 0.51997l2.6079 1.4989-1.4619-1.4939c-0.80407-0.82167-2.0346-1.8625-2.7346-2.313-0.69998-0.45048-1.2277-0.86402-1.1727-0.91902 0.27078-0.27077 3.0774 0.52731 4.4762 1.2728 2.1052 1.122 3.6132 2.4882 5.4776 4.9627 2.0048 2.6605 4.2186 6.8987 3.8145 7.3028-0.77644 0.7764-6e-3 2.8439 1.0602 2.8439 0.46939 0 1.3696 2.5033 2.0073 5.5819 0.5908 2.8522 0.65868 10.268 0.12406 13.556-0.50898 3.1308-1.7306 7.1401-2.8634 9.3979-1.3515 2.6935-1.874 3.3607-2.6319 3.3607-0.82639 0-1.7096 0.87828-1.7096 1.7 0 0.46911-0.33253 0.84959-1.2626 1.4448-3.3984 2.1746-5.4189 2.5095-14.42 2.3895-6.5236-0.0869-6.8368-0.11518-8.3428-0.75232-2.3995-1.0152-4.8699-3.5472-6.2144-6.3697l-1.0729-2.2523-0.31399 1.1891c-0.79914 3.0267-3.4373 6.2651-6.0806 7.4646-0.67829 0.30775-2.0418 0.62269-3.03 0.69987-1.6867 0.13174-1.8367 0.0974-2.446-0.56008-0.73871-0.7971-1.6092-0.89376-2.4904-0.27653-0.39686 0.27798-0.85185 0.36321-1.3217 0.24761-0.62504-0.15377-4.9878-2.4523-7.3886-3.8926l-0.82441-0.49458-1.5092 1.0807c-2.0689 1.4815-4.5926 2.5793-7.3128 3.1809-2.9522 0.65291-3.8829 0.65002-4.5472-0.0141-0.29239-0.29238-0.83063-0.53161-1.1961-0.53161-0.74661 0-1.7277 0.84346-1.7277 1.4853 0 0.34742-0.19979 0.39042-1.1297 0.24309-3.6518-0.57855-6.5262-3.6218-7.4021-7.8365l-0.30273-1.4567-0.50285 1.9801c-0.27656 1.089-0.84784 2.6416-1.2695 3.4502-0.67917 1.3023-0.88114 1.4889-1.7697 1.6349-1.1825 0.19427-1.711 0.80879-1.711 1.9897 0 0.74253-0.16378 0.94833-1.2283 1.5432-1.9484 1.089-3.6798 1.4881-6.329 1.4587-1.3258-0.0147-2.8446-0.12943-3.3751-0.255zm43.474-25.102c-0.0163-2.9436-0.12982-4.0544-0.54381-5.3161-0.39507-1.2039-0.45981-1.7714-0.26421-2.3151 0.36839-1.0241-0.15031-2.0405-1.1426-2.239-0.59672-0.11934-1.0693-0.58984-2.0038-1.9952-1.4031-2.1101-2.4985-2.8247-3.6557-2.3847-1.0639 0.4045-1.5059 1.5374-1.6862 4.3217-0.13193 2.0378-0.0605 2.8693 0.39656 4.6123 0.75483 2.8791 3.625 8.5875 5.5204 10.98l1.5391 1.9427 0.93031-1.9427 0.93033-1.9427-0.0207-3.7214zm49.038-0.5538c0.0615-0.06153 0.0876-1.1534 0.0579-2.4265-0.0297-1.273 0.0824-2.6437 0.24897-3.0459 0.28635-0.69129 2.0728-1.8149 2.8855-1.8149 0.74414 0-0.7672-5.2103-2.6549-9.153-2.1047-4.3957-4.1782-6.261-6.0829-5.472-1.8666 0.77316-2.9142 3.7123-3.1287 8.7773-0.16251 3.8369 0.11234 5.541 1.26 7.8124 0.43518 0.86122 0.79122 1.9078 0.79122 2.3258 0 0.90074 0.82993 1.8232 1.6403 1.8232 0.31744 0 0.78796 0.19079 1.0456 0.42398 0.9938 0.89942 3.3406 1.3464 3.9371 0.74994zm-279.48-12.311c-2.3354-0.58336-4.5492-2.7511-5.172-5.0647-0.55849-2.0741 0.10293-4.5484 1.4523-5.4325l0.68527-0.44903 1.0216 2.2217c0.9513 2.0689 2.4481 4.1794 2.964 4.1794 0.123 0-0.0545-0.62892-0.39446-1.3976-0.75153-1.6993-1.6087-4.6748-1.4053-4.8782 0.27905-0.27906 2.4516 0.8777 3.3477 1.7825 1.3007 1.3133 2.1546 3.2808 2.1578 4.9719 5e-3 2.9548-2.0216 4.7249-4.6568 4.0668zm220.17-19.803c0.20656-1.7693-1.7492-2.6831-2.9557-1.3811-0.47488 0.51242-0.6742 0.578-1.0096 0.33226-1.5506-1.1359-1.7268-4.4882-0.3526-6.711 1.0397-1.6817 2.1122-2.2808 4.3267-2.417 1.4976-0.09215 1.9376-0.0129 2.8359 0.51033 0.9206 0.5363 1.0841 0.77494 1.2191 1.7791 0.15467 1.151 0.74743 1.8807 1.5276 1.8807 0.313 0 0.35419 0.30212 0.21839 1.6015-0.27502 2.6312-1.4005 4.1148-3.7052 4.8846-1.9527 0.65215-2.2289 0.58923-2.1042-0.4795zm48.829-4.9595c-1.189-0.349-2.7948-1.797-3.3509-3.0217-0.54049-1.19-0.70485-4.4045-0.22523-4.4045 0.52425 0 1.5828-1.3049 1.5828-1.9511 0-0.91884 1.3671-1.5054 3.4956-1.4999 2.1466 6e-3 3.4918 0.72326 4.6839 2.4992l0.86992 1.2959-0.77973 0.47417c-1.3796 0.83897-1.3949 2.2999-0.0327 3.1281l0.74694 0.45421-0.7042 1.0354c-1.271 1.8687-3.8829 2.6957-6.286 1.9903zm-259.82-5.1387c0-2.3856 1.2943-3.6902 6.95-7.0054 2.8784-1.6872 3.9698-2.1929 4.7335-2.1929 0.98664 0 1.6202-0.4444 1.9443-1.3638 0.11527-0.32704 5.8434-3.8773 7.1625-4.4396 0.66694-0.28418-0.11341 3.277-0.94181 4.2979-0.76419 0.94179-14.849 8.9697-15.184 8.6544-0.43982-0.41452-1.9037-0.26091-2.3643 0.2481-0.24196 0.26735-0.4399 0.78344-0.4399 1.1469 0 0.49351-0.23554 0.77313-0.9303 1.1044l-0.9303 0.44364v-0.89355zm196.19-7.6261c-0.7602-0.3041-0.84203-0.21205 1.3012-1.4634 0.95023-0.55484 2.6143-1.6367 3.6978-2.4042 1.5795-1.1187 2.1162-1.3662 2.7069-1.248 0.92499 0.185 2.1781-0.93678 2.0613-1.8453-0.0539-0.41945 0.30869-0.95807 1.2444-1.8484l1.3204-1.2565-1.2717-1.0978c-1.3325-1.1503-2.1265-2.4395-2.4064-3.9074-0.33021-1.7318 1.0145-6.0066 1.9864-6.3149 0.68969-0.21891 1.3852-1.3348 1.2216-1.9602-0.0883-0.33789 0.1468-0.77342 0.70007-1.2967 1.1791-1.1151 1.8148-1.3834 3.2743-1.3823 2.5616 0.00202 4.0311 1.7493 4.1181 4.8961 0.0438 1.5868-0.0111 1.7763-0.66417 2.2898-0.7704 0.606-0.95026 1.7416-0.41225 2.6031 0.2345 0.3755 0.18252 0.7444-0.23933 1.6981l-0.53893 1.2183 2.4128 1.7328-0.16966 2.3901c-0.0933 1.3146-0.16967 2.7348-0.16967 3.1561 0 0.68357-0.0572 0.73532-0.53161 0.48142-0.34809-0.1863-0.53161-0.55655-0.53161-1.0726 0-1.4398-1.4038-2.2567-2.6925-1.567-0.38538 0.20625-0.63426 0.19864-0.90704-0.02773-0.30425-0.2525-0.64314-0.01794-1.7772 1.2302-5.0951 5.6076-7.7304 7.3016-11.305 7.268-0.98524-9e-3 -2.0778-0.13145-2.428-0.27151zm15.912-18.083c-0.60615-2.2512-3.8346-3.6067-4.0143-1.6856-0.14397 1.5374 0.58782 2.5753 2.971 4.2142l0.91863 0.6317 0.19483-1.088c0.1072-0.59843 0.0756-1.5309-0.0701-2.0722zm33.766 11.704-0.66452-0.27964 1.0632-0.62179c2.9043-1.6985 6.0199-3.918 8.6246-6.144 1.5857-1.3552 2.971-2.6063 3.0786-2.7803 0.12065-0.19525-0.27905-0.72173-1.045-1.3764-2.1404-1.8296-2.7849-3.7665-2.1558-6.4793 0.74985-3.2333 3.0945-7.0028 4.9539-7.9641 1.0684-0.55248 1.7121-0.47252 2.4945 0.30983 0.57257 0.57261 0.84672 0.66217 1.5964 0.52153 0.85341-0.1601 0.93675-0.10761 1.4612 0.9204 1.0339 2.0266 0.56207 6.9161-0.95123 9.858-0.34302 0.66686-0.31007 0.72842 0.82686 1.5449 1.1518 0.82712 1.1832 0.88804 1.1511 2.2293-0.018 0.75842-0.10788 2.1894-0.19936 3.18l-0.16634 1.801-4.9703-3.218-1.0146 1.1527c-0.89698 1.019-1.122 1.1401-1.941 1.0445-1.2984-0.15158-2.1593 0.71106-1.9566 1.9605 0.13048 0.80408 0.0236 1.0003-1.0675 1.9608-2.008 1.7675-3.852 2.5245-6.3273 2.5975-1.1695 0.03448-2.4255-0.06321-2.7909-0.217zm15.94-18.084c-0.63817-2.37-3.8508-3.5838-4.0771-1.5402-0.039 0.35222-0.21232 0.90166-0.38511 1.221-0.47028 0.86917-0.38561 1.3656 0.36005 2.1113 0.561 0.56102 0.83983 0.648 1.6613 0.5182 0.74425-0.11758 1.1506-0.02813 1.6516 0.36344l0.66453 0.51938 0.1948-1.1045c0.10719-0.60744 0.0757-1.5473-0.0701-2.0886z"/>
</svg>
