{
   "website-translation-credits": {
      "translation": [
         "Gwenn Meynier",
         "Stefan Carpentier <https://stefancarpentier.com>",
         "Florent Grouin <https://weblate.framasoft.org/user/Florent56/>"
      ]
   }
}
