<?xml version="1.0" encoding="UTF-8"?><svg width="560" height="120" version="1.1" xmlns="http://www.w3.org/2000/svg">
 <path d="m46.855 3.3009-5.6459 1.0537-5.6459 1.053-3.1401 1.1482-3.1393 1.1475-1.7064 1.8164 0.05988 2.1525 0.05921 2.1533 0.77603 1.803 0.7753 1.803 1.5802 1.4759 2.0349 0.75842 2.0341 0.7591 1.7593 1.8706-0.02115 3.5228c-0.01154 1.9375-0.15382 6.145-0.31577 9.3503l-0.29462 5.8281 1.2264 1.6014c0.67437 0.88083 1.4348 1.8811 1.6902 2.2231l0.46448 0.62164-0.23118 0.60262-0.23119 0.60334-0.9614 0.20934c-0.52883 0.11516-1.1663 0.27245-1.4167 0.34959l-0.45532 0.14026 5e-3 10.483 0.0058 10.484 0.26784 0.37286c0.14718 0.20496 0.72824 0.66564 1.2912 1.0241l1.0234 0.65195-0.11277 0.97689-0.11277 0.97762-1.0932 0.18608-1.0925 0.18607-0.37358 6.717-1.2398 1.2398-4.5651 0.53849-0.86906 1.01-0.86834 1.01 0.2044 1.7269 0.2044 1.7261 0.7154 1.3914 0.71541 1.3906 2.1695 2.0609 1.4068 0.52861h7.27e-4l1.4068 0.52862 8.7415-0.36369 3.4607-0.71822c3.8592-0.80096 6.1872-1.5553 7.3781-2.3894l0.79717-0.55751h2.727l1.1961-0.50746c0.65787-0.27912 2.1791-0.7849 3.3811-1.1242 1.202-0.33928 3.1694-1.0745 4.3713-1.6331 1.202-0.55863 2.9337-1.364 3.8484-1.7896 0.91467-0.42561 1.9186-0.7739 2.2315-0.7739h0.5695l0.89932-1.084-0.4962-0.17762c-0.27298-0.09783-1.0701-0.18036-1.7713-0.18325-0.70114-0.0026-1.7666-0.01615-2.3675-0.02961-2.3742-0.05319-10.042 0.35483-10.36 0.55116l-0.33691 0.20793-1.5725-0.54694-1.5718-0.54767-1.8678-0.0058-1.8678-5e-3 -0.91207-1.0996-2.9702-0.47505-1.6705-1.6705v-9.4517l0.56245-0.56246 0.56318-0.56245 1.3491-0.34678c0.74225-0.19051 2.4151-0.61115 3.7174-0.93459 3.0698-0.76257 9.5899-3.3724 15.177-6.0757l4.4319-2.1448 2.8525-2.0461c1.5691-1.1254 3.6726-2.7736 4.6744-3.6629 1.0016-0.88946 2.7629-2.7118 3.9141-4.0494l2.0926-2.4317 1.4238-2.9138 1.4245-2.9138 0.47152-2.0038 0.47152-2.0031-0.03245-2.7319-0.03245-2.7312-0.61179-2.3676-0.61179-2.3682-1.7459-3.642-1.7459-3.6427-4.621-6.4434-1.6493-1.4519c-0.90706-0.79867-2.6632-2.0189-3.9017-2.7116-1.2386-0.6927-3.5992-1.7512-5.2453-2.352l-2.9927-1.0925-3.5023-0.34044-3.503-0.34114-6.5564-0.00778zm305.01 2.3682-0.73586 0.16141-1.2299 3.7701-1.7113 4.8195-1.958 5.9263 0.85215 1.1249-0.27561 0.80562-1.6028 0.16422-3.2902 6.7141 1.4907 4.0613-1.1503 2.1497-4.2904-0.31788-3.699 5.9003-3.7805 5.1396-4.6167 5.0147-1.8833 2.1455-1.1446 0.01764 0.41021-32.971-0.0238-2.1695-0.11557-2.1956-0.289-1.5225-0.74362-1.2328-1.7212-1.0777-3.6293-0.45182-8.2002 0.3207-2.7918 0.78519-2.5818 1.2969-0.99593 1.0551-1.0051 1.3984-0.41446 1.5119 0.17198 1.3166 2.0842-0.49974 2.2548-0.38906 2.34 0.31577 3.0632 0.51735 1.3117 1.0044 0.38271 1.4971-0.18539 15.397 3.429-1.3371 0.53073 1.3984-3.9599 6.4781v31.717l0.19034 8.8941 0.2093 3.5171 0.24319 1.5732-4.9826 0.66325-2.0898 1.1052-0.21706 1.5767-0.038 3.8574 0.57653 1.3166 2.3824 1.7381 0.51099 0.35171 2.572 0.16071 4.9837 0.15506 7.0887-0.38765 3.8379-0.24951 2.0955-0.69076 3.6502-3.9718 3.1365-3.9473 1.7191-2.4866-0.47433-0.79926-2.1201-0.01196-4.2883 1.3173-2.6185 0.6569-2.0645-0.03312-1.4879-1.724-1.3596-4.2757-0.36722-6.6986-2.1991-2.2012 0.4081-1.1038 1.6578 0.10008-0.33546-5.189 4.1591-3.756 2.517-2.2294 0.83944-0.11137 2.6375 3.6827 2.3133 5.2305 6.2652 16.804 3.5446 1.5422 0.55966 1.4499-2.4958 1.3216 2.3358 5.8444 2.6727 4.8761 4.2197 2.8186 5.2756 0.66538 4.3839-0.29533 3.9155-2.1046 3.3346-3.2155 2.6664-3.5143 1.115-2.9843 0.39123-2.407-0.63863-0.22344-1.115 2.4141-1.9933 2.3245-3.6116 1.7614-3.6145 1.2419-3.3099-0.6844-2.6607-2.3675-3.9646-8.3221-7.8646-20.868-4.2468-11.047-2.4578-4.3269 3.3508-4.3955 3.7603-6.8447 3.7729-8.3128 2.6784-9.3272 1.1172-7.0068 0.0881-6.7242zm-298.97 8.1915h1.5168l2.5233 2.216 0.60757-0.1755c0.33418-0.0965 2.2046-0.36932 4.1566-0.60616l3.5488-0.43067 2.7954 0.41584 2.7947 0.41515 2.1244 0.95365 2.1237 0.95293 1.4907 1.6169 1.49 1.6169 1.9383 4.1345v3.2782l-7.19e-4 3.2782-0.9797 2.0905c-1.2681 2.7064-3.1007 5.4525-5.3738 8.05l-1.8199 2.0793 0.20299 1.0128 0.20228 1.0136-0.55401 0.46026-0.5547 0.46025-0.78238-0.41868-0.78166-0.41869-1.4379 1.3011 0.2192 0.874 0.21991 0.87401-0.58429 0.89089-0.58361 0.89161-1.5767-0.23683-1.576-0.23612-3.2289 1.2758-3.2289 1.2765-4.1887 0.88457-4.1887 0.88386-0.54626-0.16352c-0.3005-0.09018-0.75116-0.42222-1.0016-0.73796l-0.45531-0.57444 0.01622-10.402 0.0169-10.403 0.29955-5.7675 0.30026-5.7682 0.71331-0.97058c0.39252-0.5337 1.3155-1.3666 2.0511-1.8509l1.3378-0.88036v-0.87328c0-0.48044 0.16971-1.1906 0.37708-1.5781zm71.486 4.5293-0.72878 3e-3c-0.36853 0.15732-4.42 0.19594-4.42 0.19594l-0.88457 0.2622-0.60616 0.47224 0.62731 0.32 0.82114 0.61674 0.69851 1.2088 0.19171 3.4368 0.13393 2.6269-6e-3 3.6045 0.3827 16.855 0.0782 19.776 2e-3 13.08-0.21497 0.82608-0.21498 0.82536-4.0443 1.1376-1.4407 1.4153-9e-3 1.0122-8e-3 1.0114 0.59418 0.90573c0.32686 0.49818 1.0157 1.3779 1.5309 1.9552h7.3e-4l1.8629 0.16987 0.91417 0.60825 2.6833-0.11771 1.9453-1.8579 1.5619 0.09587 0.84791 1.5535s1.256-0.06507 1.5612-0.08529l3.515-0.2333 0.95787-0.61601 0.95787-0.61533 0.79786-1.1947 0.79786-1.194 1.187-0.76332c0.65276-0.41981 1.7332-1.2859 2.197-2.0638l1.798-3.0153-1.9045 0.0075-3.7094 1.3582-2.9582 0.0818s-1.2447-0.01839-1.3603-0.06273c-0.25697-0.09853-0.70288-0.6451-0.99101-1.2144l-0.52438-1.0354 0.0197-2.2259 0.019-2.2266-0.0973-5.9995-0.59488-28.408-3.3219-4.2811 0.12334-1.7289 3.2457-0.5385-0.39893-9.9042 0.0507-1.2602c0.13057-0.21312 0.10785-1.5295 0.10785-1.5295l-0.48069-1.6641-1.4252-1.3117zm88.775 0-0.72879 3e-3c-0.36853 0.15732-4.42 0.19594-4.42 0.19594l-0.88455 0.2622-0.60617 0.47224 0.628 0.32 0.82042 0.61674 0.6985 1.2088 0.1917 3.4368 0.13464 2.6269-7e-3 3.6045 0.20298 8.9212 0.0683 3.0096 0.11137 4.9245 0.0522 13.051 3.6228 3.7066-0.3489 1.9672-3.2479 1.0509v13.08l-0.21496 0.82608-0.21426 0.82536-2.0222 0.56881-2.0229 0.56881-0.72034 0.70764-0.71965 0.70764-9e-3 1.0121-8e-3 1.0114 0.59418 0.90573c0.32688 0.49818 1.0157 1.3779 1.5309 1.9552h3e-3l1.8629 0.16987 0.91416 0.60825 2.6833-0.11771 4.3551-0.20862s1.2553-0.06507 1.5605-0.08529l3.5157-0.2333 0.95787-0.61601 0.95787-0.61533 0.79787-1.1947 0.79785-1.194 1.187-0.76332c0.6528-0.41981 1.7331-1.2859 2.197-2.0638l1.798-3.0153-1.9044 0.0075-3.7094 1.3582-2.9582 0.08171s-1.2446-0.0184-1.3603-0.06273c-0.25697-0.09853-0.70288-0.6451-0.991-1.2144l-0.52439-1.0354 0.0198-2.2259 0.0206-2.2266-0.098-5.9995-0.59486-28.408 0.0471-6.5484-0.3989-9.9042 0.0507-1.2602c0.13061-0.21312 0.10783-1.5295 0.10783-1.5295l-0.4807-1.6641-1.4245-1.3117zm262.73 10.769-0.43348 0.52298-0.43415 0.52298 0.3869 0.72316 0.38698 0.72388 0.0937 7.4037 0.0931 7.4044-0.43423 0.75701-0.4348 0.757-2.1019 0.47083-2.1018 0.47012-2.1483 1.1263-2.1491 1.1263-0.19871 0.51735-0.19813 0.51735 0.42153 0.67523 0.4215 0.67592v1.8587l1.4322 1.5344 1.4315 1.5337h5.2572l0.28477 0.72879 0.2847 0.7281 0.0259 9.6765 0.025 9.6765 0.79502 4.2995 0.67744 1.3286c0.37283 0.73084 1.0996 1.8294 1.6147 2.4415l0.9367 1.1136 3.768 1.8777h4.0851l1.6197-1.0474c0.89062-0.5761 2.3079-1.7647 3.1498-2.641l1.5309-1.5929 0.57164-1.3744 0.57231-1.3744-0.42151-0.78729-0.42143-0.78801 1.1298-1.01 1.1306-1.01 0.5815-1.3808c0.3199-0.75956 0.71415-2.0812 0.87606-2.9363l0.29465-1.5549-0.31079-0.19171-0.31086-0.19242-0.7901 0.4229c-0.43439 0.23245-2.655 2.2476-4.9353 4.4785l-4.1457 4.0562-1.12 0.53919-1.1193 0.53918-0.8451-0.98256-0.84504-0.98251-0.47228-3.8484 0.11699-10.095 0.11768-10.095 0.54629-0.49833c0.30051-0.27421 1.9933-1.0461 3.7618-1.7149l3.2147-1.2158 3.09-2.7601c1.6993-1.5179 3.8581-3.3848 4.7978-4.1486 0.93972-0.76383 1.9922-1.6193 2.3387-1.9016l0.62942-0.51381-0.17839-0.46521-0.17831-0.4652-1.9087 0.03663-1.908 0.03739-1.3273 0.566-1.3279 0.56527-2.8609 0.2629-2.8616 0.2622-1.275 0.63081c-0.70119 0.34701-1.7231 0.73882-2.271 0.87047l-0.9959 0.23964-1.3533-1.3533-0.21152-5.5174-0.21217-5.5167-0.76684-1.077-0.76684-1.0763-4.2627-2.5896h-0.72737zm-287.16 0.1015-2.4944 1.3752-1.3082 1.5513-0.68722 2.3676 0.37849 2.4303 1.8946 1.4365 1.5971 1.7938 2.5064 0.07544 2.8637-1.2285 1.1728-1.8593 0.18606-3.2549-0.58992-2.352-1.7832-1.5824zm-87.599 0.10643-3.0273 0.47787-2.6149 2.2379-0.69852 1.9059 0.16353 2.4591 1.187 2.154 1.901 1.3505 2.4852 0.49126 2.3809-0.7866 2.271-2.1335 0.7443-2.6114-1.0312-3.1231-2.4127 1.1461-1.5563-1.1186zm172.13 11.473-2.4669 0.94167 0.64986 2.3393-1.053 1.5901-2.1659 0.92543 0.67098 2.0941 2.3739 2.2343 2.1807 1.0601 2.3584-0.34889 2.9779-2.3781 0.55048-2.7947-0.3475-1.9996-1.3723-2.0483-2.1046-1.2722zm-15.851 0.15013-2.8271 0.77462-1.478 1.6275-0.74853 3.1732 0.17267 2.419 1.9186 2.2379 3.1788 0.75066 2.6283-0.65126 1.5577-1.3011 1.0876-2.2118 0.0494-2.4592-0.82884-2.1216-2.049-1.6662zm265.08 0.99169-3.7144 0.43983-6.0374 2.8969-1.7367 1.7466c-2.3733 2.3867-4.8653 5.6986-6.4301 8.5455-0.71858 1.3074-1.7018 3.538-2.1843 4.9563l-0.87682 2.579-0.43272 2.6812-0.4328 2.6819 0.15221 4.9029 0.15229 4.9036 3.1999 8.3651 3.0717 3.0717 1.9404 0.54766c1.0671 0.30099 2.4312 0.61244 3.0322 0.69216 2.1177 0.28088 2.9383 0.236 5.4532-0.29673l2.5395-0.53778 3.1972-1.5196 3.1978-1.5196 0.0343-0.39472c0.0184-0.21719 8e-3 -1.0688-0.0243-1.8925l-0.0586-1.4978 0.59698-0.597 0.59698-0.59627h1.8101l0.73446-1.6599c0.40387-0.91302 0.82188-2.2002 0.92893-2.8602l0.1946-1.2003-0.99238-0.38062-4.3688 2.6135c-2.4029 1.4375-5.4196 3.0769-6.7036 3.6434l-2.3352 1.0298-2.2181 0.15859-2.2181 0.15929-1.1708-0.73868-1.1714-0.73867-0.84939-1.3787c-0.46727-0.75848-1.1277-2.1067-1.4674-2.9956l-0.61738-1.6162 0.63502-1.2976 0.63437-1.2976 1.4569-0.47787c2.7336-0.89588 15.291-4.0147 17.848-4.4326l2.5501-0.41724 0.80138-0.51948 0.80138-0.52016 0.38062-1.3695 0.37986-1.3695 8e-3 -4.6257 8e-3 -4.6264-0.40956-1.9299-0.40947-1.9305-0.90851-1.803-0.90785-1.803-1.9341-1.8579-1.934-1.8586-1.8896-1.0284zm-372.96 1.7381-3.2444 1.4611c-1.7845 0.80353-3.3493 1.4611-3.4776 1.4611-0.37829 0-4.975 2.9389-5.8671 3.7513-0.45074 0.4105-0.81973 0.87484-0.81973 1.0312v0.28406l1.1841 0.18043c0.65108 0.09944 2.5427 0.3738 4.2035 0.60967l3.0195 0.42922 1.0629 2.0553v29.496l-0.35454 0.21992c-0.19524 0.12066-1.6224 0.46141-3.171 0.75769l-2.8151 0.53919-0.28404 0.44686c-0.15605 0.24594-0.23174 0.61024-0.16847 0.80984l0.1149 0.363 1.4273 0.28828c0.78488 0.15845 2.287 0.38433 3.3388 0.50183l1.9122 0.21357v20.168l-0.48495 0.66326-0.48494 0.66253-3.2183 1.545-0.49057 1.0326-0.48985 1.0326 0.44828 2.3894 0.99453 1.2884c0.54695 0.7087 1.4044 1.5532 1.9052 1.877l0.91064 0.58854 1.8206-0.12335 1.8213-0.12405 7.0793-1.9242 1.5598-0.79362c0.85791-0.43662 2.2795-1.4263 3.1591-2.1991l1.5992-1.4048h0.46731c0.2569 0 0.95256-0.40887 1.5464-0.90852l1.0798-0.90855 2.3175-1.0065c1.2746-0.55344 2.6438-1.1975 3.0428-1.4315l0.72598-0.42573-0.49761-0.49761-2.1159 0.0415c-1.1636 0.0229-3.7423 0.0464-5.7303 0.0522l-3.6145 0.0106-1.891-0.39261-1.8918-0.3926-1.7367-1.8495v-15.63l0.54625-0.34537c0.30051-0.18986 0.90188-0.34813 1.3364-0.35101l0.79009-0.0058 4.5207-1.6549 4.52-1.6549 1.7924-1.1714 1.7924-1.1707 0.12545-0.90714c0.0694-0.49894 0.2972-1.1152 0.50606-1.3695l0.3799-0.46235 2.3231 0.43557 1.8255-1.9975c1.0042-1.0988 2.4569-2.9486 3.2281-4.1107l1.4026-2.1124 1.0657-3.0935 1.0664-3.0928-0.16282-2.751-0.16352-2.751-0.80774-1.8213-0.80844-1.8213-1.3476-1.392c-0.74138-0.76574-2.4332-2.1994-3.7589-3.1858l-2.4098-1.7931-2.0722-0.9163c-1.1394-0.50389-3.2477-1.2426-4.6849-1.6409l-2.6128-0.72388-3.6495-5e-3c-2.0074-0.0026-4.0187-0.10405-4.4694-0.22484l-0.81973-0.2192v-1.9876l-0.63788-0.57798c-0.35095-0.3176-1.104-0.75409-1.6733-0.97057zm230.58 1.0298-5.2425 0.0296-1.6274 0.57866c-0.89497 0.31847-2.309 0.97848-3.1422 1.4667-0.83318 0.48826-2.4771 1.6957-3.6539 2.6826l-2.1399 1.7938-1.1594 1.9503c-0.63799 1.0726-1.6028 3.0678-2.1434 4.4334l-0.98255 2.4831 0.43769 0.43067 0.43839 0.43066 0.87542-1.0925c0.48151-0.601 1.0848-1.3107 1.3406-1.5767 0.25582-0.26606 1.6946-1.3958 3.1971-2.5106l2.7313-2.0264 2.9145-1.4167 2.9137-1.4167 2.9138 0.1029 2.9138 0.1022 1.3152 2.691 0.4017 3.5397 0.40253 3.5397-1.5295 1.2391-3.2091 0.79998-3.2084 0.79999-4.3705 2.1293-4.3713 2.1293-2.0341 1.4689-2.0342 1.4682-1.3632 1.9792-1.3631 1.9799-1.7649 4.8619v3.477l0.54838 1.8474 0.54836 1.8467 2.8109 2.5388 3.8653 1.2842 3.3071-0.20722 3.3078-0.20652 2.8327-0.93532c1.5581-0.51439 3.8264-1.3533 5.0404-1.8643l2.2075-0.92896 0.51384 0.42641 0.51451 0.42713v1.2694l0.73582 0.93531 0.7359 0.93532 0.812 0.15718c0.44677 0.08628 0.90592 0.17923 1.0199 0.20651 0.11382 0.02726 1.0968-0.21152 2.1849-0.53074l1.9784-0.58079 1.927-1.0932 1.9271-1.0939 0.58987-0.90078 0.58996-0.90078 0.28126-1.7762 0.28052-1.7755 1.4823-2.2315c0.81509-1.2272 1.4815-2.3837 1.4815-2.5698v-0.33831h-0.43139c-0.48867 0-2.7738 1.0103-5.831 2.5783-1.1409 0.58508-2.2478 1.0643-2.4592 1.0643h-0.38414v-1.3752l1.084-2.3175c0.59622-1.2746 1.1902-2.8506 1.3202-3.5016l0.23686-1.1834h-1.5055l-0.22491 0.36442c-0.12377 0.20033-0.3796 0.36368-0.56811 0.36368h-0.34249l-8e-3 -3.1866c0-1.7529-0.16232-5.4979-0.35519-8.3221l-0.35033-5.1342-0.41441-1.9686-0.41517-1.9679-0.88249-1.8876-0.88452-1.8876-1.3335-1.1721-1.335-1.1714-1.9489-0.8923zm72.164 1.4527-2.7002 0.22062-2.6995 0.21991-1.9905 0.91136c-1.0948 0.50118-3.019 1.6443-4.2756 2.5409l-2.2844 1.6303-1.0826 1.3737c-1.3432 1.7045-3.0127 5.0219-4.0422 8.0309l-0.78231 2.2865-0.35386 2.4486-0.35452 2.4493-8e-3 3.3515-8e-3 3.3508 0.40103 1.9305 0.40103 1.9298 2.123 4.3713 1.428 1.6698 1.428 1.6698 3.8709 2.6502 2.0031 0.54976 2.0032 0.55048 4.5524-0.0881 4.5531-0.08882 1.9447-1.0735 1.9453-1.0735 1.6973-1.8601c0.93369-1.023 2.023-2.4663 2.4204-3.207l0.72253-1.3462-0.44971-0.71962c-0.24714-0.39566-0.44903-0.97281-0.44903-1.2828v-0.56387l1.2659-0.74712 1.2666-0.74712 0.37352-1.335c0.20539-0.73423 0.6387-2.7285 0.96287-4.4312l0.5892-3.0956-0.20366-3.4607-0.20372-3.46-0.58009-2.1857c-0.31899-1.202-1.1485-3.3918-1.8439-4.866l-1.2645-2.6805-2.2526-2.8433-1.5218-0.89234-1.5217-0.89161-2.5416-0.59768zm-31.352 0.04726-1.5478 0.41587-1.5485 0.41515-2.6523 2.7552-2.653 2.7559-0.30802-0.33409c-0.16953-0.18368-0.51828-0.98966-0.77463-1.791l-0.46584-1.4569-0.9438-1.1841-0.94381-1.1834-0.72878 0.0092c-0.40071 5e-3 -2.2856 0.53746-4.1886 1.1834l-3.46 1.175v0.86062l1.2552 0.84581 1.2546 0.84582 0.74852 1.2736 0.74786 1.2736 0.23258 26.158-0.20791 0.82748-0.20724 0.82749-4.0346 1.1728-0.71399 0.71399-0.71473 0.71399v2.0236l0.60267 0.90078c0.33118 0.49534 1.0276 1.3691 1.5478 1.9418l0.9459 1.0417 3.46-0.25585c1.9032-0.14057 5.0414-0.37448 6.9735-0.51945l3.5129-0.26361 0.95293-0.62377 0.95226-0.6245 0.78799-1.201 0.78733-1.201 1.1799-0.7739c0.64899-0.42547 1.6294-1.3627 2.1786-2.0828l0.99877-1.3089-0.3291-0.29533-0.32919-0.29462-4.3705 0.26079c-2.404 0.14317-4.5824 0.1816-4.84 0.08529-0.25786-0.09632-0.70847-0.63918-1.0016-1.206l-0.53283-1.0305v-4.4532l0.91061-5.9981 0.90993-5.9981 0.5033-1.1728c0.27668-0.64488 1.0077-1.858 1.6246-2.6967l1.1221-1.5253 2.0222-0.63716 2.0228-0.63788 0.73514 0.73514 0.20725 3.7315 0.20716 3.7307-0.62307 2.543-0.62299 2.5431 0.22338 0.22343 0.22415 0.22414 2.154-2.2089 2.1547-2.2082 0.91905-3.0407c0.50565-1.6724 1.1035-4.0801 1.3294-5.3496l0.4109-2.3083-0.23962-1.1517c-0.1318-0.63337-0.63127-1.8324-1.1094-2.6643l-0.86904-1.5126-1.5457-1.1362-1.5457-1.1369-1.3737-0.37004zm-320.46 1.01-0.72879 0.0026c-0.36852 0.15732-4.42 0.19594-4.42 0.19594l-0.88526 0.26219-0.60617 0.47224 0.628 0.32 0.82042 0.61673 0.69919 1.2088-0.0867 3.761-0.0973 2.3027 1.5267 1.2321-0.15083 1.607-1.5281 0.76545-0.32704 7.761 2e-3 13.08-0.21428 0.82608-0.21498 0.82536-4.0443 1.1376-1.4407 1.4153-0.0092 1.0121-0.0085 1.0114 0.59418 0.90572c0.32687 0.49819 1.0157 1.3779 1.5309 1.9552l0.93673 1.0502 3.4622-0.22554c1.9043-0.12396 5.0443-0.33004 6.9779-0.45814l3.5157-0.2333 0.95786-0.61601 0.95788-0.61533 0.79785-1.1947 0.79787-1.194 1.187-0.76333c0.65275-0.4198 1.6414-1.3485 2.197-2.0638l1.01-1.3004-0.32704-0.29744-0.32634-0.29744-4.1724 0.24598-0.71612 1.5133-1.1968-0.04156-1.0453-1.3899s-1.2454-0.0184-1.361-0.06273c-0.25696-0.09853-0.70288-0.6451-0.99099-1.2144l-0.52371-1.0354 0.0198-2.2259 0.019-2.2266-0.098-5.9996 0.10855-6.1334 0.38906-9.8577 0.05-1.2602c0.13055-0.21312 0.10784-1.5295 0.10784-1.5295l-0.48-1.6641-1.4252-1.3117zm87.09 0.15999-3.5305 0.10995-1.4252 0.66326 1.3582 0.66679 1.0812 1.5154-0.0515 7.6347-0.10925 14.932-0.043 5.626-0.18254 2.6044-0.59981 0.99804-4.4474 2.3168-0.70905 1.108-0.10854 2.3929 0.58288 1.7571 0.60545 0.6731 1.0192 0.18538 7.3204-0.55611 5.0043 0.09234 1.6282-0.25445 2.7883-1.5838 2.075-1.6733 1.9411-2.0483 0.64915-2.1314 0.92618-1.483-0.46311-0.06908-1.853 0.25444-1.6571 0.58429-2.9962 0.43489-2.9652-0.2777-0.27841-2.1314-0.76759-2.6854-0.34395-3.2451-2.3168-0.64914 0.38979-0.91063 2.1124-0.94235 0.0923-5.1897-0.18535-8.2474-0.0726-8.3821-0.48353-1.256-1.4505-0.64774zm335.04 1.4999 0.85991 0.21567 0.85993 0.21639 0.58777 1.4675 0.5872 1.4675v7.682l-0.39542 0.73937-0.39541 0.73867-1.5168 0.66044-1.5169 0.66043-5.9891 1.3469c-3.2938 0.74074-6.1861 1.4226-6.4278 1.5154l-0.43983 0.16846-0.25802-0.41727-0.25868-0.41797 1.5436-2.9765c0.84905-1.6371 2.1024-3.7452 2.7855-4.6842 0.68305-0.93933 2.4671-2.8516 3.9638-4.2493l2.7214-2.5409 1.6444-0.79645zm-72.189 3.5503h2.3887l1.9383 1.5788c1.0662 0.86841 2.3811 1.8692 2.9222 2.2238l0.98396 0.64493-0.0151 1.6916c-8e-3 0.93063 0.0945 3.9953 0.22766 6.8101l0.24178 5.1179-0.40111 2.5867-0.40169 2.5874-0.7077 1.6514-0.70839 1.6514-1.3934 1.3892-1.3934 1.3885-2.0088 0.45531c-1.1048 0.25042-2.5773 0.44027-3.2725 0.42219-1.7576-0.04566-3.5949-0.61962-4.8549-1.5168l-1.0678-0.76051-3.1492-6.648-0.25016-2.1293-0.25023-2.1286-0.67241-0.57584-0.67175-0.57517v-1.1263l1.4372-1.7395c0.79067-0.95679 1.5144-2.0195 1.6077-2.3612 0.0933-0.34169 0.26973-1.2167 0.39191-1.9439l0.22205-1.3223 1.385-2.1434 1.3857-2.1434 1.1735-0.98678 1.1729-0.98747 1.8699-0.55542zm-286.06 3.5742 5.464 1.1559 2.9138 2.0271 0.65903 1.2652 0.65904 1.2659-0.36933 3.4283-2.0412 4.2107-2.5501 2.703-2.5494 2.703-5.2807 3.9202-2.6311 1.2609c-1.447 0.69345-2.9021 1.2602-3.2338 1.2602h-0.60335l-0.49974-0.60122-0.49974-0.60194-0.10714-10.287-0.10643-10.286 1.6705-1.8862 2.1857-0.55751c1.202-0.30665 3.2503-0.65279 4.5524-0.76899zm90.973 3.4452-2.7933 0.44828-1.0199 0.44969 0.96633 0.60194 0.7605 1.1362 0.35384 1.9771 0.05 4.7535-0.6407 25.33 1.8318 3.1499-0.69003 1.1468-2.3344 0.0818-0.63366 1.6112-1.0333 1.1771-1.614 0.48069-1.6486-0.16352-1.6401-0.89444-1.1024-1.6247-0.80353-1.9764-0.32561-2.5522 9e-3 -2.0208 0.12543-1.8156-0.36999-0.13462-1.0911 1.1235-0.75978 1.6359-0.61183 2.9138-0.26357 3.4805 0.65617 2.7778 1.027 2.001 1.5633 1.9524 2.2731 1.2786 3.3325 0.36792 2.8109-0.4356 2.383-0.88244 2.4-1.6705 2.5811-2.8708 1.6888-3.7715 0.57091-3.8682 0.14943-14.453 0.10223-9.8598-0.14381-5.7058-0.26007-3.2126-0.97621-1.2455-1.8847-0.6731zm17.774 0.12194-2.5839 0.03169-2.5127 0.53496-1.0481 0.57726 0.95788 0.3813 0.73864 1.2546 0.35664 2.2273 0.0133 6.1724-0.18466 6.9837-0.21851 0.4673-0.27768 5.2829-1.4245 0.21286-1.7952 0.80916-1.5499 1.182-0.32915 0.5843 0.20512 0.84087 0.72739 1.1087 1.115 1.1933 2.548 0.48494 4.0754-0.06833 5.7036-0.06205 2.8088-0.7267 1.6204-1.9982 0.71327-2.2639 0.46307-2.5945-0.67732-0.29603-1.6232 0.50818-1.9482 0.07963-2.0144 0.17127-0.27774-3.3945 0.0332-6.2471 0.0923-2.9652-0.24033-7.6892-0.48496-1.5563-1.1637-0.92828zm106.05 9.796 0.54696 0.81973 0.54764 0.81972h1.4012l0.89447 0.89374 0.89372 0.89443v3.0428l-0.7267 1.1764-0.72736 1.1764-1.3674 0.94307c-0.75212 0.5188-2.2946 1.3659-3.4276 1.8826l-2.0595 0.93954-2.7982 0.53568-2.7982 0.53496h-3.926l-0.58502-0.8923-0.58502-0.89303 0.24883-0.83733c0.1368-0.46056 0.64802-1.4286 1.1362-2.1511l0.88738-1.3138 1.717-1.2109c0.94419-0.66603 2.3211-1.745 3.0597-2.3978l1.3427-1.1869 2.4655-0.76192 2.4655-0.76123 0.69701-0.6259z" stroke-width=".36088"/>
</svg>
