<?xml version="1.0" encoding="UTF-8"?>
<svg width="560" height="120" version="1.1" xmlns="http://www.w3.org/2000/svg">
 <g transform="matrix(.3295 0 0 .3295 -128.74 -47.542)">
  <g transform="translate(22.436,-18.514)">
   <path d="m1216.8 185.56c-4.9286 0.0958-9.0014 1.8468-10.187 5.625-10.769-1.5563-17.947 11.13-12.219 17.812-14.937 8.5426-1.1609 23.388 8.2188 29.281-1.8308 11.963 8.4697 8.7511 14.625 14.906 4.0104 22.002 7.9367 57.618 5.9374 105.06-31.538 7.5283-65.074 15.288-95.937 19.406 0.3013-3.9752 0.061-8.0083-0.4688-11.781 31.654-9.2191 55.674-35.046 57.656-61.25 3.2195-42.551-28.552-76.598-38.469-73.906-7.3332-6.789-22.996-11.011-23.531-5.75-9.5597-3.0494-19.361-2.1795-27.031 0.0937 1.6003-5.7538 1.631-9.8005-2.5-13.75-1.6779-1.6042-4.6648-2.8848-8.2812-2.75-2.8132 0.10483-6.0078 1.0525-9.2188 3.375-11.965-5.2883-20.842 4.7548-24.5 12-3.7373 7.4012-8.3972 25.589-10.438 29.375-6.5652 12.183-9.1563 18.019-9.4687 33.344-0.6326 30.987 20.458 76.612 62.531 82.219-0.1125 4.0772-0.6218 7.908-1.1875 11.688-15.994 0.37555-30.498-0.91198-42.594-4.625-7.129-2.1883-19.946-1.5079-26.813 0.5-14.751 4.3138-6.5389 20.364 1.4688 24.812-2.8867 8.7875 3.0643 18.767 14.688 21.031 0.1187 5.1873 3.6768 8.6561 15.625 8.6562 10.654 1.6e-4 27.973-0.5634 32.25-1.0312 37.328-4.0827 87.608-15.197 133.12-29.969-1.3427 12.666-3.1185 25.972-5.375 39.875-0.4151 2.5576 3.2463 4.7795 7.2187-5.0312 0.2142 4.164-4.6464 25.756-1.8437 21.906 1.6028-2.2014 8.1942-20.103 14-54.156 0.4904 22.714-7.9176 82.149-19.656 95.844 2.3137 6.9758 1.3299 4.9646 7.7188 2.125 11.552-19.253 9.869-23.693 13.594-40.375-0.01 11.199 2.5889 17.477 5.625 8.7812 9.8759-28.289 16.896-56.595 21.75-84.75 5.2172-2.1724 10.268-4.3749 15.094-6.625 7.8892-3.6787 4.9174-3.7148-2.0625-2.9688 0.6223-0.13829 19.035-5.6856 10.406-6.4688-7.0246-0.63759-14.042 1.42-21.281 2.8438 0.015-0.10338 0.016-0.20912 0.031-0.3125 13.412-5.1462 28.863-6.4979 35.813-14.062 4.1053-4.4693-13.669 0.26411-18.875-2 13.811-4.2558 36.502-9.4772 38.25-19.938 0.078-0.46937-0.4756-0.64787-1.5313-0.625-6.5466 0.14182-32.64 8.7442-50.688 13.5 2.6812-24.481 3.9106-48.808 4.0938-72.875 0.1864-24.52-5.5561-48.045-6.3438-54.594-1.8537-15.41-13.476-21.276-37.094-31.875-3.9206-1.7595-8.2914-2.6682-12.125-2.5938zm-472.37 27.062c-6.7874-0.27755-8.0013 10.283-9.5312 13.312-2.9598 0.23014-5.6711 1.2174-6.8438 2.8438-6.61 9.1676-7.9304 26.383 2.4062 32.062-3.6091 7.1694 11.823 11.677 19.312 13.312 30.144 6.5831 66.52-0.14683 95.25-6.5312-15.125 26.346-60.185 41.554-86.656 46.531-11.044 2.0766-8.5844 4.619-4.75 4.3438 7.2217-0.51837 13.667-1.1793 17.344-2.2812-3.7582 3.323-14.65 6.2737-22.781 7.3438-4.7841 0.62956-3.3125-1.3052-3.3125 2.5312 2.3845 0.24974 4.8999 0.30978 7.4688 0.1875-0.49897 2.4381 3.5506 2.8135 11.062 1.25 15.116-3.1462 33.279-9.4149 44.719-16.875-1.2114 2.504-5.3622 5.4136-8.375 7.1875-3.0261 1.7817-7.1454 3.7422-5.8125 5.9688 1.2519 2.0912 4.0299 3.3906 14.625 0.15625 5.7493 0.5989 12.644 0.0876 19.094-4.4375 2.1236 2.8088 17.804-4.7629 34.062-15.188 7.77 7.8142 21.654 18.657 26.656 17.062 3.4975 1.6059 10.95 4.449 14.344 5.5312 2.6902 0.85796 6.426-0.40106 3.875-2.0625-7.9238-5.1608-13.784-10.779-14.625-12.125 6.7143 5.1295 17.326 11.939 22.844 14.219 4.8334 1.9968 9.7547 4.2122 11.656 1.7188 2.6846 1.3968 14.992 6.861 18.344 8.2188 4.7384 1.9194 8.0502 1.5875 6.7812 0.125-0.59699-0.68812-4.4315-2.067-5.75-3.625 11.017 3.4677 18.06 2.6836 11.562-0.46875-21.633-10.496-45.791-35.363-62.188-55.25 0.44772-0.5098 0.91503-1.0068 1.3125-1.5 7.7748-9.6464 10.549-12.228 10.406-19.875-0.24196-13.004-27.263-32.59-35.125-29.781-26.883 9.6052-82.224 13.099-104.16-5.9375-5.6129-10.01-13.279-6.0324-16.094-4.7812-2.9051-2.1782-5.2245-3.1098-7.125-3.1875zm366.31 16.938c5.4756 0.093 10.988 0.93538 15.875 3.125-16.414-1.1842-20.275 2.3879-18.094 2.875 10.912 2.4368 26.104-0.26134 52.062 24.969-4.7643-3.9935-10.846-7.4509-15.781-9.4375-3.5462-1.4276-8.3005 0.19923-4.1562 3.75 10.409 8.9178 16.752 17.137 16.719 26.25-4.7408-12.871-17.98-18.712-13.375-9.6562 4.277 8.4136 4.5947 14.895 4.25 22.094-0.9012 18.797-21.974 35.302-40.969 35-17.419-0.27727-26.115-15.452-26.781-33.594-0.2328-6.336 5.4938-20.274 6.5624-23.938 9.7052-10.047 24.787-7.8839 25.469-20.125 0.1473-2.6612-3.4385-4.8536-3.9375-9.5-0.4819-4.488-3.4354-8.6053-7.0625-11.344 1.2423-0.13091 2.4958-0.23001 3.7812-0.3125 1.7991-0.11543 3.6123-0.18726 5.4376-0.15625z"/>
   <path d="m1128.2 243.81c-8.5172-2.7409-8.5661 2.5038-1.4397 4.784 2.9124 0.93189 5.6743 2.4802 7.5079-0.29131 1.0996-1.6621-2.6698-3.3991-6.0682-4.4927z"/>
   <path d="m1212.2 474.12c0.9262-6.1909 3.8053-11.773 6.1564-10.823 3.7291 1.5056 2.3489 8.4168 1.1561 12.125-2.4795 7.7081-5.1322 19.018-7.5358 15.944-3.1882-4.0776-0.7717-10.596 0.2232-17.246z"/>
   <path d="m415.81 205.06c-0.4584-0.0418-1.006 0.0274-1.6875 0.1875-6.2662 1.4717-16.053 9.1635-13.844 11.938-3.7255 1.3247-5.1488 1.074-7 3.9688-3.8466 6.015-3.7149 13.71 2.875 20.844-8.354 3.7773 4.7431 14.047 12.5 20.281 3.6138 2.9043 13.022 4.1312 18.75 4.75 11.893 1.2848 24.856 2.7031 38.281 3.7188-0.60547 4.3441-0.81686 8.3759-2.125 9.8125-6.4936 7.1313-11.732 14.338-11.188 29.656 1.6736 47.066 47.903 52.926 82.5 52.031 41.261-1.0669 70.582-24.633 71.719-51.344 0.48448-11.386-3.7478-35.142-15.188-34.375-5.2119-5.2119-18.524-20.993-24.062-12.125-0.69035-0.63912-1.4627-1.2246-2.2812-1.8125 6.2911-2.2671 12.293-5.0034 17.906-8.3125 4.4123-2.6011 3.8692-4.471-3.5-2.5625-4.1247 1.0682-7.2941 1.9183-11.062 1.5625 7.9794-1.666 23.099-6.0319 31.344-9.4688 5.2787-2.2006 5.3337-4.9617 0.53125-5 6.5039-2.0494 10.468-4.4106 12.781-6.2812 1.7332-1.4016 1.664-2.5504-0.78125-2.125-1.8729 0.32579-5.4874 1.5665-6.75 1.2188 5.2334-1.7368 10.261-3.3355 8.0938-5.5 16.744-4.087 22.255-10.101 15.844-8.6562-62.098 13.997-129.4 22.677-191.59 3.7812-8.0667-6.1312-14.843-16.687-19-12.938-1.1173-2.0727-1.6873-3.1246-3.0625-3.25zm118.12 64.906c10.601 1.4907 25.144 2.0059 48.062 24.281-4.7643-3.9935-10.877-7.4821-15.812-9.4688-3.5464-1.4276-8.3006 0.19923-4.1562 3.75 10.409 8.9178 16.752 17.137 16.719 26.25-4.7405-12.871-19.07-18.069-13.375-9.6562 8.7017 12.855-4.2261 23.722-25.75 23.219-13.854-0.32397-27.586-2.5832-33.906-16.75 0.8404-16.402 19.633-14.267 19.719-23.531 0.0246-2.6652-3.4385-4.8536-3.9375-9.5-0.2444-2.276-0.24045-4.805-0.34375-7.25 4.2998-0.3332 8.5744-0.76686 12.781-1.3438z"/>
   <path d="m1630.3 183.12c-4.9289 0.0958-9.0015 1.8468-10.188 5.625-10.769-1.5564-17.947 11.13-12.219 17.812-8.0561 4.6074-8.2367 10.374-5.2187 15.625-37.017 3.7533-71.946 6.0447-107.88-2.9375-4.313-18.319-12.831-11.947-18-15.938 2.839-4.8058-19.772-20.35-22.781-13.531-1.1178-1.4289-2.8088-1.9945-4.8437-1.9375-7.2679 0.20368-18.617 8.4639-21.281 14.75-1.1654 2.7497 0.8048 4.8521 2.25 7.2188-2.6531 3.801-3.8365 10.67-3.4375 14.688 1.0841 10.917 11.451 18.911 17.719 24.656 3.2856 3.0123 12.55 5.4006 24.937 7.1562-6.7967 38.426-15.721 96.386 32.188 94.625 15.749-0.57881 31.188-1.7643 46.187-3.9375-1.9429 2.1615-3.5104 4.5421-4.5937 6.6875-3.7372 7.4012-8.3972 25.62-10.438 29.406-6.5651 12.183-9.156 17.988-9.4688 33.312-0.6777 33.227 23.608 83.309 71.969 82.812 42.72-0.43885 78.981-32.348 81.438-64.812 2.4466-32.339-15.3-59.723-28.312-69.844 1.248-1.6535 1.806-4.9111 2.1875-8.3125 2.5229 1.2271 3.639-4.9746 4.9687-8.8438 3.0791 0.0391 3.9508-15.068 4.1876-15.75 2.3627 6.0744-0.4955 18.374 1.0937 19.312 1.4968 0.884 3.7011-4.0006 5.375-9.9375 2.0585-7.3009 5.4067-15.719 7.4687-32.125 0.2806 1.4146 1.3007 2.3694 2.875 3.7188 9.1133 8.6553 20.729 10.991 33.75 11.75 5.3816 0.31373 5.4529-2.2628 4.125-5.3438 4.8639 0.39539 6.5546-3.6048 3.7813-4.5312 3.4615 0.363 14.664 0.87844 2.875-3.5625-2.9039-1.0938-7.3643-2.5608-10.562-5.6562 3.1011 1.0338 14.433 4.2461 16.906-0.875 6.3094 1.4152 9.9939-1.3894 6.5626-2.6875-6.9585-2.6323-9.9488-3.8516-15.031-7.125 6.8471 0.70131 15.551-4.8882 10.156-6.75-3.7361-1.0222-4.4956 1.4048-26.281-16.156-7.2787-6.2389-14.341 1.3262-15.781 4.5-1.9464-0.14611-3.6487 0.15022-5.0624 0.59375 1.4405-18.13 0.6834-33.064-2.8438-57.344-2.2315-15.36-13.039-23.089-36.656-33.688-3.9209-1.7595-8.2917-2.6995-12.125-2.625zm-22.875 44.906c0.8761 0.83846 1.8119 1.6235 2.75 2.375-3.1803-0.17694-6.1649-0.59231-8.2188-0.25 2.0551-0.73427 3.8361-1.4382 5.4688-2.125zm4.75 3.9062c0.7768 0.55571 1.5559 1.0871 2.3124 1.5625-1.8306 11.963 8.4701 8.7824 14.625 14.938 4.6271 16.171 6.5141 31.568 6.9063 48-38.997 9.5256-97.812 17.492-121.22 8.4688 0-14.878 2.9529-30.51 7.9687-45.125 14.031 0.14956 27.898-0.20181 39.688-1.125 7.4229-0.58122 11.058-2.4385 6.1562-2.75-11.884-0.75535-11.178-1.3669-12.844-2 9.0218 0.28709 32.986-1.4046 29.5-5.5625 8.2241-1.5017 15.876-1.1254 22.938-5.5625 5.6186-3.5306-19.729 1.3611-34.938-0.0312 10.881-1.5813 33.603-7.9221 38.906-10.812zm61.937 72.688c0.044 0.0285 0.08 0.0656 0.125 0.0937-0.092 0.27232-0.1452 0.50174-0.2187 0.75 0.031-0.28814 0.064-0.55099 0.094-0.84375zm-38.031 1.4375c0 0.51323 0.01 1.0154 0 1.5312-0.8672 0.035-1.6349 2e-3 -2.1875-0.1875 0.5143-0.37822 1.3089-0.84578 2.1875-1.3438zm-0.094 5.9688c-0.3383 13.653-1.3975 28.417-2.5624 45-7.833-4.569-18.314-6.5978-18.75-2.3125-9.5603-3.0494-19.362-2.1482-27.031 0.125 1.5997-5.7526 1.6305-9.801-2.5-13.75-0.5499-0.5257-1.2509-1.0197-2.0625-1.4375 16.036-4.4541 31.397-10.474 45.906-18.562 6.7836-3.7816 8.0782-5.8462 1.3438-4.9062-1.8375 0.25644-10.99 2.723-11.906 2.9062 3.7392-2.6254 11.207-4.4747 17.562-7.0625zm8.4376 41.312c0.6543 1.4154 0.086 5.5041-0.1876 8.4688-0.6973-0.36803-1.3612-0.6431-2-0.875 1.3029-3.6648 2.1331-7.4124 2.1876-7.5938zm-41.781 5.9688c5.5842 0.0644 11.199 0.92102 16.188 3.1562-16.414-1.1842-20.275 2.3879-18.094 2.875 10.912 2.4368 26.135-0.26134 52.094 24.969-4.7643-3.9935-10.846-7.4509-15.781-9.4375-3.5467-1.4276-8.332 0.16798-4.1876 3.7188 10.409 8.9178 16.752 17.137 16.719 26.25-4.7406-12.871-17.948-18.681-13.344-9.625 4.2777 8.4136 4.5952 14.895 4.25 22.094-0.9006 18.797-21.974 35.271-40.969 34.969-17.419-0.27727-26.146-15.452-26.812-33.594-0.2326-6.336 5.4939-20.274 6.5625-23.938 9.705-10.047 24.819-7.8839 25.5-20.125 0.1473-2.6612-3.4385-4.8223-3.9375-9.4688-0.4804-4.4736-3.4512-8.6052-7.0625-11.344 1.2368-0.13012 2.5014-0.26164 3.7813-0.34375 0.8991-0.0577 1.8098-0.10119 2.7187-0.125 0.7953-0.0208 1.5773-0.0404 2.375-0.0312z"/>
   <path d="m1311.7 349.62c3.6559-1.4727 9.4833-2.7887 7.7387-1.1002-1.7083 1.6534-4.5319 4.9307-6.9871 5.093-4.4228 0.29219-3.3114-2.9585-0.7516-3.9927z"/>
   <path d="m544.36 274.74c-3.5241-1.6713-12.417-2.4228-9.05-0.21037 2.3023 1.5126 6.2571 4.4166 8.8396 5.0512 6.8558 1.6847 4.9268-2.6039 0.21045-4.8407z"/>
   <path d="m836.43 228.42c-13.021-0.75912-24.64-3.1201-33.754-11.775-2.7175-2.3292-3.7681-3.4182-2.2526-7.8842-8.7223-5.4514-1.6667-16.993 4.1298-26.281 1.407-0.87939 4.4876-2.564 8.6351-2.2526 1.44-3.1738 8.4898-10.744 15.768-4.5052 21.786 17.561 22.545 15.122 26.281 16.144 5.3948 1.8618-3.2898 7.4592-10.137 6.7579 5.0826 3.2733 8.0591 4.5011 15.018 7.1333 3.4315 1.2981-0.2543 4.103-6.5637 2.6878-2.4735 5.1212-13.8 1.9126-16.901 0.87878 3.1982 3.0954 7.6595 4.5471 10.563 5.641 11.789 4.4409 0.59461 3.9203-2.8668 3.5573 2.7733 0.92649 1.071 4.9234-3.7928 4.528 1.3279 3.0809 1.2544 5.6838-4.1272 5.3701z"/>
   <path d="m856.74 211.76c-2.0278-0.38369-3.159 1.8305-0.7509 3.0036 1.91 0.93034 6.8683 0.66211 6.3825-0.37549-0.8269-1.766-4.0363-2.3262-5.6316-2.6281z"/>
   <path d="m913.21 328.62c-4.6484-3.164-3.6088 1.8367-1.2629 3.157 5.7488 3.2353 12.653 5.6192 17.258 6.1035 5.4929 0.57766-9.893-5.1068-15.995-9.2605z"/>
   <path d="m966.55 357.66c-6.383 0.73501-12.389 2.8465-15.574 4.2093-12.422 5.3152 0.58234 4.5481 9.2605 2.9465 6.7548-1.2467 13.815-8.0196 6.314-7.1558z"/>
   <path d="m391.38 339.22c-3.2123 0.21727-5.2593 2.1656-7.1875 4.0938-3.7019-1.75-5.9341-3.3995-8.8125-1-7.338 6.1172-10.234 18.74-0.90625 23.5-2.2833 1.9569-3.6646 4.302-4.375 6.8125-2.7762 9.8105 5.9742 21.876 13.969 23.656 22.166 4.9348 58.229 8.7168 91.969 10.188 9.3497 30.59 13.729 67.445 6.5625 97.375-0.99603 4.16 4.459 4.924 10.562-5.625 4.6967-8.1174 6.3537-21.103 7.3125-29.5 1.486 6.5966 1.7254 13.819 5.9375 11.906 4.1067-1.8644 5.375-14.139 5.375-23.812 4.3228 1.9157 7.3355-5.9907 7.125-15.469 0.75625 1.2863 1.1584 3.0579 1.1562 5.2188-3e-3 2.4314 0.86903 3.3194 1.5938 2.4375 4.0463-4.9238 2.5699-17.239 2.6562-18.219 0.69508-7.8837-0.84189-16.173-3.375-23.906 13.261-0.48464 24.286-1.638 31.25-3.5625 8.1392-2.2491 5.4532-5.5086-8.25-5.3125-7.0896 0.10123-12.625-2.6469-16.156-3 10.011 0.59766 33.075 0.68205 44.438-0.6875 7.6679-0.92427 9.019-3.669 4.9688-5.2812 10.374-1.4054 28.713-4.8411 35.938-8.125 4.0228-1.8287 1.9907-4.477-0.53125-4.625-5.3953-0.31664-15.82 0.0943-19.938-2.125 26.738-4.7963 57.258-9.1441 70.25-17.875 4.9201-3.3064 0.63269-3.6726-5.9688-2.375-73.861 14.518-165.3 23.751-237.03 0.6875-1.0071-12.854-14.903-12.945-18.469-11.875-4.3679-2.7983-7.564-3.669-10.062-3.5z"/>
   <path d="m651.69 367.76c-6.383 0.73501-12.389 2.8465-15.574 4.2093-12.422 5.3152 0.58234 4.5481 9.2605 2.9465 6.7548-1.2467 13.815-8.0196 6.314-7.1558z"/>
   <path d="m710.22 327.31c-3.2123 0.21727-5.2593 2.1968-7.1875 4.125-3.7019-1.75-5.9341-3.4308-8.8125-1.0312-4.0883 3.4081-4.4871 9.3164-3.0938 14.281 1.1075 3.9464 3.8049 6.1131 7.1875 9.2188-2.2833 1.9569-5.1856 3.0549-5.9062 5.5625-1.5294 5.322 6.9117 23.126 14.906 24.906 21.644 4.8186 56.683 8.5513 89.875 10.094-0.78101 0.84177-1.5658 1.6862-2.3438 2.5938 10.951 31.882 16.69 72.403 8.9375 104.78-0.99604 4.16 4.4277 4.924 10.531-5.625 4.6967-8.1174 6.3537-21.103 7.3125-29.5 1.486 6.5966 1.7566 13.819 5.9688 11.906 4.1067-1.8644 5.3438-14.139 5.3438-23.812 4.3228 1.9157 7.3667-5.9907 7.1562-15.469 0.75622 1.2863 1.1584 3.0892 1.1562 5.25-3e-3 2.4314 0.86904 3.2881 1.5938 2.4062 4.0463-4.9238 2.5699-17.208 2.6562-18.188 0.99881-11.329-2.5838-23.566-7.1875-33.656 16.166-0.32751 29.638-1.5256 37.688-3.75 8.1392-2.2491 5.4845-5.5086-8.2188-5.3125-7.0896 0.10123-12.656-2.6469-16.188-3 10.011 0.59764 33.107 0.68204 44.469-0.6875 7.6679-0.92427 8.9877-3.669 4.9375-5.2812 10.374-1.4054 28.745-4.8411 35.969-8.125 4.0228-1.8287 1.9907-4.477-0.53125-4.625-5.3953-0.31664-15.82 0.0943-19.938-2.125 26.738-4.7963 57.258-9.1441 70.25-17.875 4.9201-3.3064 0.63269-3.6726-5.9688-2.375-73.861 14.518-165.51 24.384-237.03 0.6875-5.8509-1.9384-13.445-12.677-18.688-13.344-2.6351-0.335-3.5885 1.1109-4.7812 1.4688-4.3679-2.7983-7.564-3.669-10.062-3.5z"/>
   <path d="m1801.1 188.69c-5.7766 0.22847-11.678 6.2066-14.312 11.969-10.577-2.3504-17.221 6.9477-20.25 15.156 1.1482 3.4447 2.4803 6.4083 6 8.0312-4.5727 6.8603 1.7659 11.706 6.9688 16.406 0.2519 5.9315 5.4938 14.702 19.781 16.938 47.055 7.362 94.098 5.9667 166.59-11.5 2.1318 9.5926 1.4564 30.528-0.031 46.531-0.7776 8.3647-7.2741 22.362-2.5 19.125 0.9847-0.66745 3.2861-3.6406 6-9.1875 4.2724-8.7318 9.9214-23.159 15.625-40.062-1.7494 15.752-10.578 46.448-18.438 62.5-2.3285 0.10343-4.6676 0.17439-7 0.25 0.7921-1.9763 1.5144-3.7738 0.8125-6.5938-2.796 0.93202-3.511 4.0813-5.7813 6.75-45.861 1.0884-92.063-3.3692-132.12-16.25-1.007-12.854-14.903-12.914-18.469-11.844-9.9838-6.3961-13.822-2.8342-17.25 0.59375-3.702-1.75-5.9341-3.4308-8.8125-1.0312-7.338 6.1171-10.234 24.115-0.9062 28.875-2.2835 1.9569-3.6959 4.302-4.4063 6.8125-2.7762 9.8105 5.4117 21.876 13.406 23.656 43.288 9.6372 140.15 14.925 168.72 7.0312 8.1392-2.2491 5.4531-5.5086-8.25-5.3125-7.0897 0.10123-12.656-2.6781-16.188-3.0312 10.011 0.59766 33.107 0.7133 44.469-0.65625 7.6677-0.92427 9.019-3.669 4.9687-5.2812 10.374-1.4054 28.713-4.8411 35.938-8.125 4.0227-1.8287 1.9907-4.477-0.5312-4.625-5.3956-0.31664-15.82 0.063-19.938-2.1562 26.739-4.7963 57.258-9.1129 70.25-17.844 4.9204-3.3064 0.6328-3.6726-5.9687-2.375-21.419 4.2101-44.314 7.5086-67.781 9.5312 18.525-23.597 30.012-66.877 31.781-97.188 0.689-11.799-20.555-37.335-32.719-34.375-7.5173 1.8295-18.759 12.44-26.531 13.969-45.386 8.9284-96.336 11.114-137.53-4-1.5869-1.7887-5.942-7.7088-9.1874-9.75-4.3498-2.7357-6.2908-1.72-9.875-0.21875-2.0174-2.0172-4.2709-2.8082-6.5313-2.7188zm182.28 118.03c-1.5078 5.9861-3.9036 12.445-5.75 17.312-1.0616 0.067-2.1246 0.12609-3.1876 0.1875 2.568-4.1725 5.7461-10.132 8.9376-17.5z"/>
   <path d="m1730.6 307.73c-2.0279-0.3837-3.159 1.8305-0.7509 3.0035 1.91 0.93036 6.8683 0.66213 6.3825-0.37547-0.8269-1.766-4.0363-2.3262-5.6316-2.628z"/>
   <path d="m1794.5 393.22c-3.0795-6.929 1.9107-20.625 7.1435-14.882 2.9922-6.7327 5.8584-10.881 14.882-8.9293 6.8721-6.013 12.931-3.8653 18.454 4.167 6.3447-6.6243 13.502 3.7452 17.859 10.715 9.0445 15.232 2.1285 45.152-3.5718 55.362 58.212 6.1399 129.34 1.6776 180.97-24.407 10.076-5.0906 9.2873-0.8486-2.891 6.6673-5.2667 3.2503-18.325 10.128-21.516 11.191 3.2407-0.0762 8.7095-2.7856 11.269-2.4142 2.7569 0.40009-0.1152 4.1529-9.0166 9.1214-9.6756 5.4006-31.329 11.77-41.524 14.374 10.009 1.0504 27.834-4.4509 35.447-5.5742 7.1834-1.06 3.5002 2.0549-1.8159 4.4734-6.0847 2.7682-16.566 7.1663-30.01 9.9169-5.0657 4.2892-13.576 5.395-19.687 6.3712 5.761 1.7644-1.6191 5.2252-7.9725 7.2648-26.396 8.4737-90.556 13.37-133.13 4.0892-9.8551-2.148-13.712-13.663-9.5246-22.621 5.8512-12.515 8.2274-40.343 4.7623-50.599-7.586-5.0791-13.435-9.3492-10.12-14.287z"/>
   <path d="m1966.1 358.15c-4.249-3e-3 -5.5917 4.4081 1.4837 4.4885 8.4245 0.0956 14.885-2.2558 19.765-4.3826 1.4396-0.62744 1.2588-2.0373-1.9853-1.5922-7.6972 1.0561-14.566 1.4902-19.263 1.4863z"/>
   <path d="m2032.1 332.71c3.8199-0.64286 9.4506-1.8334 9.3725-0.0188-0.093 2.1624-7.1998 3.797-10.619 4.0075-4.3932 0.2704-4.0992-3.0901 1.2468-3.9898z"/>
   <path d="m889.84 386.36c-4.249-3e-3 -5.5918 4.4081 1.4838 4.4885 8.4245 0.0956 14.885-2.2558 19.765-4.3826 1.4395-0.62744 1.2588-2.0373-1.9853-1.5922-7.6972 1.0561-14.566 1.4902-19.263 1.4863z"/>
   <path d="m568.22 399.05c-4.249-3e-3 -5.5918 4.4081 1.4838 4.4885 8.4245 0.0956 14.885-2.2558 19.765-4.3826 1.4395-0.62744 1.2588-2.0373-1.9853-1.5922-7.6972 1.0562-14.566 1.4902-19.263 1.4863z"/>
   <path d="m785.56 325.48c2.931-1.3739 6.4164 0.14655 4.7379 2.4936-3.1342 4.3823-22.049 6.966-29.923 6.234-2.7448-0.2551 0.52656-2.675 1.7455-2.743 8.3951-0.46808 19.43-4.105 23.44-5.9847z"/>
   <path d="m593.33 248.31c-1.4628 0.54476-1.7749 3.3823-0.55726 3.7653 2.9306 0.92186 11.143-3.4759 13.083-6.2714 0.50049-0.72142-0.8939-0.93767-2.5477-0.64036-3.063 0.55067-8.0104 2.4138-9.9776 3.1464z"/>
   <path d="m623.35 226.73c-2.0624 0.15464-4.3242 2.6434-1.3715 2.9923 2.7949 0.33029 3.0506-3.1183 1.3715-2.9923z"/>
   <path d="m522.72 457.62c0.18157-2.797-3.1566-6.8569-3.6442-2.8346-0.91139 7.5178-1.0123 11.669-2.6157 18.976-0.86709 3.9509 1.1082 4.6962 2.8129-0.0383 3.4832-9.6741 3.2475-13.03 3.447-16.103z"/>
   <path d="m504.71 484.41c-2.0965-0.0442-2.8198 2.0123-3.1738 3.8792-0.65143 3.4352-3.6028 12.272-0.7053 10.051 5.2844-4.0514 7.4478-13.854 3.8792-13.93z"/>
   <path d="m843.89 455.62c0.18168-2.797-3.1566-6.8569-3.6442-2.8346-0.91138 7.5178-1.0122 11.669-2.6157 18.976-0.86709 3.9509 1.1082 4.6962 2.8129-0.0383 3.4832-9.6741 3.2475-13.03 3.447-16.103z"/>
   <path d="m825.89 482.42c-2.0965-0.0442-2.8198 2.0123-3.1738 3.8792-0.65143 3.4352-3.6028 12.272-0.7053 10.051 5.2844-4.0514 7.4478-13.854 3.8792-13.93z"/>
   <path d="m524.23 229.41c-13.021-0.75912-24.64-3.1201-33.754-11.775-2.7175-2.3293-3.7681-3.4182-2.2526-7.8842-8.7223-5.4514-1.6667-16.993 4.1298-26.281 1.407-0.87939 4.4876-2.564 8.6351-2.2526 1.44-3.1738 8.4898-10.744 15.768-4.5052 21.786 17.561 22.545 15.122 26.281 16.144 5.3948 1.8618-3.2898 7.4592-10.137 6.7579 5.0826 3.2734 8.0591 4.5011 15.018 7.1333 3.4315 1.2981-0.2543 4.103-6.5637 2.6878-2.4735 5.1211-13.8 1.9125-16.901 0.87876 3.1982 3.0954 7.6595 4.5471 10.563 5.641 11.789 4.4409 0.5946 3.9203-2.8669 3.5573 2.7733 0.92648 1.071 4.9234-3.7928 4.528 1.3279 3.0809 1.2544 5.6838-4.1272 5.3701z"/>
   <path d="m544.54 212.76c-2.0278-0.38371-3.159 1.8305-0.7509 3.0035 1.91 0.93035 6.8683 0.66211 6.3825-0.37547-0.8269-1.766-4.0363-2.3262-5.6316-2.628z"/>
   <path d="m1620.5 373.59c-8.5171-2.7409-8.5661 2.5038-1.4397 4.784 2.9125 0.93188 5.6743 2.4802 7.5079-0.2913 1.0996-1.6621-2.6697-3.3991-6.0682-4.4927z"/>
   <path d="m636.25 216c3.719-1.0529 7.4352-2.4483 9.5-2.8124 0.43038-0.0759 0.1567 1.0325-1.372 2.0338-1.6945 1.1098-5.8154 3.1821-7.1278 3.5912-3.1623 0.98563-2.667-2.3406-1-2.8125z"/>
   <path d="m539.54 224.53c-3.2727-0.18132-5.7093 4.0586-1.25 4.4723 3.5105 0.32566 6.7394-0.45071 9.1464-1.7955 2.0136-1.125 2.8265-3.0242-1.9268-2.8687-2.1901 0.0716-3.8549 0.30911-5.9697 0.19195z"/>
   <path d="m849.96 223.83c-3.2727-0.18132-5.7093 4.0586-1.25 4.4723 3.5105 0.32566 6.7394-0.45071 9.1464-1.7955 2.0136-1.125 2.8265-3.0242-1.9268-2.8687-2.1901 0.0716-3.8549 0.30911-5.9697 0.19195z"/>
   <path d="m1972.4 467.34c-3.9797 0.79572-7.0543 2.3482-5.5748 4.7426 3.4839 5.6382 19.888-4.1416 25.809-8.1317 2.4692-1.6639-0.3052-2.8741-4.8291-1.2948-4.4344 1.5481-12.593 4.1215-15.406 4.6838z"/>
   <path d="m2024.9 427.13c-3.5778 2.0184-2.7034 6.6097 1.4489 4.6328 4.5027-2.1437 12.079-7.869 10.589-9.6454-1.3497-1.6089-9.5442 3.6059-12.038 5.0126z"/>
   <path d="m1723.2 318.58c-3.2727-0.18132-5.7092 4.0586-1.25 4.4723 3.5105 0.32566 6.7395-0.45071 9.1465-1.7955 2.0136-1.125 2.8265-3.0242-1.9268-2.8687-2.1901 0.0716-3.8549 0.30911-5.9697 0.19195z"/>
   <path d="m1593.1 250.76c-5.8125 1.1292-1.1566 4.4138 0 4.5962 8.3396 1.3147 15.584-3.1713 20.329-6.5407 1.3363-0.94877 1.1818-2.0246-3.7337-0.7323-4.628 1.2167-12.766 1.933-16.596 2.6768z"/>
  </g>
 </g>
</svg>
